पुरूषवचनानुसारनबदलणारेक्रियापदाचेटुयुक्तकिंवाटुविरहितरूप: असीम, गणित, मूळ, स्रोत
कर्त्याचीकेस: prepositionalकेस
द्वितीयाकेस: 
विषयकेस: विषयकेस
पालक: पालक, प्रमुख, वरिष्ठ, पालक
बाबा: वडील
आई: आई, आई, आईचा
हॅलो: बाय, हाय, अहो
पूर्वज: दौऱ्यावर, आजोबा
आजी-आजोबा: आजोबा, आजी
भुकेलेला: भूक, उपाशी
षष्ठीविभक्तीकेस: मालकीचेकेस
विशेषण: 
आणि: रक्कम, करून, एक
मला: स्वत:, मी, माझे, आम्ही, चाटणे
आपण: त्यांना, तुला, तू, कोण
आम्हाला: आम्ही, आमच्या, आमचा
तो: तो, की, ती, या, या, जे
गंतव्यकेस: उद्देशकेस
चतुर्थीकेस: 
वास्तविकमूड: 
deonticमूड: 
सशर्तमूड: संकेतार्थमूड, काल्पनिकमूड
epistemicमूड: 
कारणीभूतकेस: 
आतीलसंदर्भ: 
व्यक्तीसंदर्भ: 
अवलंबूनखंड: 
perfectiveपैलू: 
गेल्याताण: 
मर्दानीलिंग: प्राणीलिंग
comitativeकेस: 
उपस्थितताण: 
benefactiveकेस: 
essiveकेस: 
नाही: नाही, नॉन, महत्प्रयासाने, अक्षम, खेळपट्टीवर, नाही, किंवा, काहीहीनाही, ऐवजी, नाही, करूशकतनाही, नाही
त्याच्या: त्यांच्या, त्याचा, तिच्या, त्याला, त्या, तिचा, च्या, ज्या, स्वतंत्र
पृष्ठभागसंदर्भ: 
adpositionalकेस: 
स्थानकेस: 
जागासंदर्भ: 
मार्गकेस: 
प्रश्नार्थकमूड: 
आणिकिंवा: 
विशेषकिंवा: 
स्रोतकेस: 
अपादानकेस: 
भावनाव्यक्तकरणारा: घन, खारा, ठोस, जोरदार, दिशादाखवणारा, नाट्यमय, व्यक्त, उघड, स्वत:चीमतेस्पष्टशब्दातमांडूशकणारा
परंतु: अद्याप, मात्र, तरी, जरी, असेअसलेतरी
सर्व: प्रत्येकजण, प्रत्येकाच्या, एकूण, संपूर्ण, एकूण, संपूर्ण, सर्वकाही, कोणत्याही, वाढत्या, पूर्णपणे
नाजूकलिंग: 
ते: त्यांना, ती, त्या, त्यांच्या, त्यांचे, आडनाव, या, त्याच, गोरा, समान, ते
अनेकवचनसंख्या: 
एक: एकच, एक, मध्ये, फक्त, एक, वळण, मात्र
कोण: कोणीतरी, जोकोणी, जे, ज्या, म्हणून, ज्या, काहीही, कुणी, की, त्यांच्या, त्या, गाणे, कोण
भविष्यातताण: 
सामाजिकसंदर्भ: 
कधी: तेव्हा, कधी
imperfectiveपैलू: 
तेथे: अस्तित्वात, गुरुवार
अधिक: प्रती, सर्वात, पुढील, पलीकडे, ऊर्ध्वगामी, वर, मल्टि, पेक्षा, ऐवजी, देखील, आणखी, अधिक, अजूनही, अद्याप, आणखी, अनेक, अनेक, इतर, अन्यथा, आणखीएक, उर्वरित
बाहेर: बाहेर, बाह्य, बाह्य, बाहेरची, घराबाहेर, बंद, बाहेरच्या, पलीकडे, वर, यावर, वर, पुढे, राजीनामा, बाहेरपडा
नातेवाईककेस: नातेवाईककेस
illativeकेस: 
करू: करा, सुरू, कामहातीघेतले, प्रस्तुत, सक्रिय, केले, पाप, ठेवले, काय, प्रतिक्रिया, काहीही, कीनाही, जेकाही, काम
दिशादाखवणारामूड: सूचकमूड
प्रश्नशब्द: 
दुवा: कनेक्टर, बॉण्ड, घड, दुवा
व्यक्ती: मनुष्य, लोक, वैयक्तिक, कोणीतरी, कोणीतरी, माणूस, मानवी, चेहरा, व्यक्तिमत्व, त्याला, त्यांना, वैयक्तिकरित्या, पादचारी, सहकारी
नर: मर्दानी, उल्लेख, गृहस्थ, मनुष्य, सभ्य, महिला
शक्यझाले: करूशकता, कदाचित, शक्यतो, कदाचित, शक्यता, शक्यता, मे, शक्य, सक्षम
संख्या: रक्कम, रक्कम, आकृती, सांख्यिकीय, आकडा, प्रमाण, संख्या
फार: मोठ्यामानाने, अत्यंत, फारच, जास्त, खूप, आतिशय, मोठ्याप्रमाणावर, अत्यंत, खरोखर, वाईटरीतीने, प्रचंड, अत्यंत, भरपूर, मल्टि, फार, सर्वात, जोरदार, प्रामाणिकपणाने, आतापर्यंत, तेही, ठीकआहे, ठीकआहे, सर्वयोग्य, अत्यंत, घसा, मुबलक, विलक्षण, विश्वासबसणारनाहीइतका, उत्कृष्ट, कमकुवत, जोरदार, एवढी
वेळ: तर, क्षण, दरम्यान, वेळेवर, कालावधी, ऐहिक, ताण, वेळापत्रक, याकालावधीत, हवामान, पुनरावृत्ती, तास, दृष्टी
वेळसंदर्भ: 
ऐहिककेस: 
बद्दल: संबंधित, यासंबंधी, सुमारे, सुमारे, च्या, करून, पेक्षा, सुमारे, साठी, वर, जवळजवळ, अंदाजे, गोष्ट, आदर, धडा, औषध
शब्दशः: शब्दशः, रिअल, मूळ, संपूर्ण, शाब्दिक, साहित्य, अचूक, अचूक, तंतोतंत
फक्त: फक्त, केवळ, फक्त, बिंदू, केवळ, पूर्णतः, मर्यादीत, केवळ, बे, फक्त, फक्त
थोडे: लहान, लहान, थोडा, किंचित, थोडा, किरकोळ, मामुली, लहान, पोर्टेबल, काही, हलके, लहान
नंतर: पुन्हा, कोण, पासून, पूर्वी, , नंतर, त्यानंतर, तथापि, त्यानंतर, त्यानंतरच्या, त्यानंतर, नंतर
आग्रहकरणारामूड: 
पूर्वलक्ष्यीप्रभावानेपैलू: 
महान: मोठ्या, मोठा, थोर, गंभीर, अफाट, मोठ्याने, प्रचंड, राक्षस, प्रचंड, हातीसत्ताअसलेलाप्रबळ, चांगला, दंड, सिंहाचा, प्रचंड, खारा, विस्मयकारक, उत्कृष्ट, इष्टतम, भव्य, प्रमुख, परिपूर्ण, उल्लेखनीय, तल्लख, ट्रंक, मॅक्रो
volitiveमूड: 
आधी: अगोदर, पूर्व, पूर्वी, महत्व, पर्यंत, पर्यंत, समोर, पूर्वी, विरुद्ध, विरुद्ध, पुढे, प्रगती, पुढे, पुढे, मागील, पूर्वी
हेकेलेचपाहिजे: पाहिजे, अपरिहार्यपणे, अनावश्यक, आहेते, गरज, करावा, पाहिजेते, इच्छित, पाहिजे
दोन: दुहेरी, दोन्ही, आमच्या, जोडी
पहा: दिसत, दृश्य, दृष्टी, सूचना, आकलन, पाहू, टकलावूनपाहणे, पहा, बैठक
मलामाहीतआहे: खात्रीकरूनघेणे, जाणीव, शिक्षण, झेंडा, दृश्यमान, समजून
खाली: खाली, खाली, अंतर्गत, खाली, खाली, खाली, कमी, तळाशी, कनिष्ठ, खाली
पहिला: पदार्पण, प्रारंभिक, पासून, पुढे, पहिल्याने, सुरुवातीला
स्वत:च्या: स्वत:ला, तूस्वतः, प्रदेशताब्यात, वैयक्तिकरित्या, त्याचा, स्वतः, स्वत:ची, वैयक्तिक
alienableताब्यात: 
inalienableताब्यात: 
जुन्या: वापरले, प्राचीन, वृद्ध, वृद्ध, माजी, माजी, वय, अगोदर, दौऱ्यावर
चर्चामूड: 
दिवस: दररोज, द्या, काम, प्रकरण, नोकरी
जेथे: जेथेजेथे, ज्यायोगे, जागा
आले: ते, पर्यंत, पोहोचण्याचा, आगमन, आगमन, झाले, येऊ
मार्ग: पद्धत, पद्धती, , अर्थ, मार्ग, मार्ग, मुलूख, पदपथ, माग, रीतीने, रस्ता, रस्ता, साखर, ट्रॅक, मार्गक्रमण, सवय, कसे, प्रक्रिया, मोड, मार्ग
काम: नोकरी, नेमणूक, सक्रिय, कार्य, कामगार, कामगार, कारकीर्द, कार्य, येथपासूनचालवतात, फंक्शनल, व्यवसाय, कायदा, कामबाहेर, रोजगार, व्यावसायिक, काम, कलाकृती
स्वर: प्रसिद्ध, जीवन, जगण्याची, चळवळ, गती, वाहतूक, वर्णमाला, साचा
जा: चालणे, भाडे, निघून, निर्गमन, स्थलांतर
perlativeकेस: 
पुरोगामीपैलू: 
लांब: दीर्घकाळापर्यंत, टिकाऊ, उंच, बाजूने, याकालावधीत, युग, ताण, लांब, लांब
म्हणतात: स्पोकन, सांगा, बोलू, प्रतिनिधित्व, संबंधित, म्हणतात
अगदी: देखील, एकतर, पर्यंत, पर्यंत, आणखी, खूप, त्याचप्रमाणे, पुढील, शिवाय, स्वतः
परत: मागे, मागील, पाठीमागे, मागे, परत, पुनर्संचयित, पूर्ववत, पुन्हा, पुन्हापुन्हा, पूर्वी, त्यानुसारते, मागे, पुनर्प्राप्त, परतमिळवणे
येथे: येथे
विचार: विचार, विचार, विचार, कल्पना, विचार, मनन, असे, म्हणतात, मन, वाटत, वाटते, सूचित, विचार
प्रत्येक: सर्वकाही, प्रत्येक, कोणत्याही, जे, दिशेने, प्रति, प्रत्येकाच्या, भाजक, संपूर्ण, सरासरी
गेल्या: शेवटी, नंतरचे, अंतिम, अंतिम, आणखीएक, आणखी, नवीन, अलीकडील, शेवट, गेल्या, सहन, टिकूनराहाणे, मागील, उशीरा
अंतर्गतसंदर्भ: 
लागू: रिसॉर्ट, व्यापू, प्राप्त, अवलंब, बळकावणे, करा, प्राप्त, निवडा, झेल, कॅप्चर, चार्ज, स्वीकार, आणण्यासाठी, वाहून, अंकुर, लागू, लागू, लागू
आढळले: शोधणे, शोधू, शोध, शोध, उपलब्ध, करा, बैठक
हात: हात, मनगट, हात
तरुण: तरुण, कनिष्ठ, किशोरवयीन, किशोरवयीन, नवीन
देणे: कर्जाऊदेणे, प्रदान, ऑफर, प्रदान, वितरीत, प्रस्तुत, घेऊ, ठेवले, दान, द्या, मंजूर, पुरस्कार, नियतकालिक, सायकल, देणे, देणे
देव: दैवी
delativeकेस: 
काही: काहीतरी, ऑब्जेक्ट, नाहीएक, काहीही, काहीहीनाही, कोणीही, काही, काही, काही, काहीसे
योग्य: जोडी, योग्य, अचूकपणे, गोरा, न्याय, न्याय्य, अयोग्य, पात्र, लाभ, कायदा, योग्य, खरे, काही, आपलीखात्रीआहेकी, नावदेणे, तसेच, ओलांडून, योग्य, योग्य, योग्य, योग्य, योग्य
एकदा: लगेच, तातडीने, पद्धत, नमुना, पद्धती
semelfactiveपैलू: 
बाकी: लांब, सोडून, वगळू
भाग: विभाग, अंशतः, भाग, अंशतः, पार्सल, अपूर्णांक, विभाग, शेअर, थोडा, तुकडा, रस्ता, उपसंच, धडा, विभाग, भाग, आंशिक, विभागणी, प्रभाग, क्षेत्र, प्रमाण, वतीने, सहभागी, भाग
घर: घर, आवारात, मंदिर, गृहनिर्माण, घरगुती
जग: क्षेत्र, जागतिक, विश्व
डोके: शीर्षक, मुख्य, मुख्य, धडा, नेते, अध्यक्ष, अध्यक्ष, संचालक, बॉस, पेन, डोकेदुखी, केस
तीन: तिसऱ्या, नवव्या, कर
लक्षकेंद्रित: हेतू, उद्देश, ध्येय, उद्देश, लक्षकेंद्रित, लक्ष, एकाग्रता, येणे, दृष्टी
प्रेम: प्रेम, प्रेम, सारखे, क्रश
नेहमी: कायमचे, सतत, कधी
रात्री: संध्याकाळी, डिनर, p.m., आजरात्री
राजा: राज्य, स्वामी, राजे, उद्योजक, राजा
दरम्यान: आपापसांत, मध्ये, च्या, मध्ये, मध्ये, आत, मध्यम, चेंडू, दरम्यान
हृदय: आनंद, उत्साहवर्धक, कोसळणे, हृदय
paucalसंख्या: 
कारण: योग्य, पासून, केस, कारण, कारण
कार्यकारणभावकेस: 
नाव: आडनाव, नाम, नाव
योग्यनाम: 
देशातील: राष्ट्र, जमीन, पृथ्वी, राज्य, जमिनीवर, माती, पक्ष, शेतात
विचारले: विचारू, सल्ला, उद्युक्तकरणे, प्रश्न
दृश्यमानसाक्षीसंबधी: 
चांगले: वरिष्ठ, सर्वोत्तम, उत्कृष्ट, आदर्श, थकबाकी, पुढील, पुढे, चांगला
बाजूला: बाजूकडील, मर्जी, मर्जी, वतीने, वळण, पान, पैलू, अर्धा, पैलूपाडणे, दिशेने, बाजूला, बाजूला
अर्थात: अभ्यासक्रम, धडा, व्याख्यान, नक्कीच, खात्रीने, निश्चितपणे, दर, मार्ग, विश्वास
पुरेसा: पुरेसा, सूचविले, पुरेसा, जरुरीपेक्षाजास्त, प्रामाणिकपणाने, भरपूर, अपुरा, जोरदार, तेही, सिंहाचा, अत्यंत, खारा, लक्षणीय, सेवनाने, वाजवी, ठेवले, पूर्णपणे
लवकरच: लवकरच, जलद, संकेत, पटकन, जलद, तत्काळ, जलद, धांदल, तातडीचे, त्यामुळे, लगेच, सहजगत्या, जवळच्या, लवकर, स्नॅप
पूर्ण: पूर्णपणे, सूचविले, संपूर्ण, पूर्ण, अपूर्ण, संपूर्ण, नक्की, अचूक, पूर्ण, तंतोतंत, कसून, संपूर्ण, व्यापक, आकार, संपूर्णपणे, पूर्णपणे, पूर्णपणे, पूर्ण, पूर्ण, पूर्ण, पूर्ण, पूर्ण, पूर्ण
खोली: खोली, चौथ्या, बेडरूममध्ये, शांतता, कप्पा, तळघर, खोली
पाणी: द्रव, द्रवपदार्थ, पाणलोट
desiderativeमूड: 
प्रकाश: प्रकाश, तेजस्वी, मेणबत्ती, थोडा, शैली, हलके, फिकटगुलाबी, स्पष्ट, प्रकाश, असुरक्षितता
शब्द: एखाद्याभाषेतीलशब्दसंग्रहासंबंधी, आवाज, शब्दसंग्रह, वाक्यांश, क्रियापद, नाम, शब्दरचना, टर्म
दार: गेट, प्रवेशद्वार, प्रवेशद्वार, धडा, पोर्ट, पोर्टल
वापर: वापर, वापर, वापर, खर्च, ग्राहक, व्यस्त, अर्ज, उपयुक्तता, लागू, कामावर, वापर
सकाळी: आहे., नाश्ता
terminativeकेस: 
शक्ती: शक्ती, ऊर्जा, कदाचित, मजबूत, शक्ती, शक्तिशाली, डायनॅमिक, कोशिंबीर, वर्चस्व, अधिकार
स्वत:: स्वत:, तूस्वतः, स्वत:ला, स्वत:, स्वत:ला, स्वतः, स्वत:ची, अहंकार, फक्त
आवाज: आवाज, मोठ्याने, मतपत्रिका, ऑडिओ, मत, आयटम, अफवा, अफवा, आवाज
पांढरा: रिक्त, तक्रार
पैसा: संपत्ती, चांदी, आर्थिक, रोख, चलन, अर्थ, आर्थिक
पुढे: बाजूला, हळूच, पुढेते, खालील, नंतर, आकारमान, पुढे, त्यानंतरच्या, नंतर, त्यानंतर, त्यानंतर, त्यानंतर, पुढे, पुढे, पुढे, पुढे, पुढे
गरीब: हात, गरिबी, वाईट, कमकुवत
मृत्यू: मृत्यु, संपणारा, मृत
फॉर्म: आकार, साचा, स्वरूप, रुपरेषा, नमुना, शेत, आकार, शब्दकसेबनतातत्याचेशास्त्र
inessiveकेस: 
एकत्र: एकाचवेळी, बाजूने, संयुक्त, सामूहिक, संच, हळूच, संयुक्तरुपाने, एकत्र
बाब: केस, प्रकरण, गोष्ट, इंद्रियगोचर, समस्या, साहित्य, पदार्थ, विषय, समस्या, प्रश्न, सामग्री, विषय, बाब
अनेकदा: वारंवार, सतत, नियमितपणे, वारंवार, सामान्यपणे, साधारणपणे, विशेषत:
मित्र: घटक, प्रियकर, सहकारी, सोबती, सहकारी
ऑर्डर: प्रणाली, व्यवस्था, व्यवस्था, करार, अरे, आदेश, वळण, सलग, रांग, क्रम, घडणारा, आमंत्रण, त्यामुळे, द्या, टाळण्यासाठी, शब्दलेखन
अत्यावश्यकमूड: 
गोल: गोलाकार, मंडळ, शर्यतीच्या, गोल
ठेवा: धरा, देखरेख, घालणे, ठेवले, संच, पेस्ट, कायम, गार्ड, व्यस्त, सारखे, परिरक्षण, संवर्धन, रक्षण, अडकवूनठेवणे, पालन, राहू, राहतील, निश्चित, देखभाल
पत्नी: पती,पत्नी, महिला
विश्वास: विश्वास, मानतो, मानणे, विश्वास, विश्वास, आत्मविश्वास, विश्वास, आशावाद, आशावादी, विश्वास
जवळ: पास, बाजूला, जवळजवळ, सुमारे, बंद, सुमारे, समीप, अक्षरशः, जवळच्या, शरीरातीलएखाद्यासंस्थेचाजोबिंदूकेंद्रस्थानमानलाजातोत्याच्याजवळचाभाग, शेजारी, शेजारी
सार्वजनिक: सामान्य, प्रेक्षक, सामान्य, सामान्यपणे
राज्यसंदर्भ: 
मुलगा: थवा, मुलगा
शंभर: शंभरावाभाग, चेहरा, टक्के, शतक
मुले: करडू, संतती, मुलाला, बाळ
अशाप्रकारे: ज्यामुळे, त्यामुळे, म्हणून, अशा, होय, म्हणून
आशा: इच्छा, आशा, अपेक्षा, आशावाद, आशावादी, अपेक्षित, अपेक्षा, अपेक्षा
वरील: वर, प्रती, वरचामजला, उच्च, अव्वल, प्रगत, वरील, ओलांडून, यासंबंधी, द्वारे, यावर, ओव्हरहेड, वर, पुढे
प्रिय: प्रियकर, महाग
वाचा: वाचन, गाणे, कमळ, वाचक
शहर: शहर, महापालिका, कंट्री, शहरी
आधीच: तयार, तयार, अर्जदाराच्याकुंटुबाचीसंपूर्णमाहिती, तरीही, पूर्व
खरं: सत्य, प्रत्यक्षात, सत्यता, खरे, रिअल, प्रत्यक्ष, खरंच, खरोखर, प्रत्यक्षात, केले
factiveसाक्षीसंबधी: 
मुलगी: दासी, मुलगी, महिला, महिला, मैत्रीण, फक्त
ऐकता: ऐका, सुनावणी, वाटत
किमान: किमान, किमान, कमी, उणे, कमी, सर्वातकमी, सर्वात, सर्वोत्तम, सर्वाधिक, इष्टतम
कदाचित: कदाचित, कदाचित, असेगृहीतधरले, कदाचित, शक्यतो, शक्य, शक्यता, संभाव्य, supposedly
खुल्या: स्पष्ट, साधा, स्पष्टपणे, फक्त, जाहीरपणे, रिक्त, स्पष्ट, स्पष्ट, बाहेरची, तूट, उघडपणे, उघड, लोड, प्रकट
शरीर: मांस, शारीरिक, भौतिक, शारीरिक, निधी, अवयव, प्रेत
हवा: वारा, वा-याचीझुळूक, विमानचालन, हवामान, विमान, उड्डाण
निसर्ग: नैसर्गिक, मुळ, नैसर्गिकरित्या, मूळ, कूळ, देशी, वन्यजीव, वर्ण
मदत: मदत, उपयुक्त, मदत, मदत, सहाय्यक, घालणे, मदत
पत्र: मेल, , लेखन
चार: चौथ्या
निवडमूड: संकेतार्थमूड
आग: गरम, ज्योत, ताप, शेकोटी, बुद्ध
फुकट: स्वातंत्र्य, स्वातंत्र्य, माफ, मोफत, व्यर्थ, मुक्तपणे, रिक्त, तोंडहाती, प्रकाशन
युद्ध: लढाई, संघर्ष, लढा, रणांगण, wrestle
दुसरा: इतर, दोन्ही, त्यानुसारते, आणखीएक, दुसरेम्हणजे,
संयुक्त: असामान्य, ऐक्य, समावेशक, केंद्रीय, सारखा, घटक, अद्वितीय, एकमत, संयुक्त, संयुक्त, युती, फेडरेशन
कॉल: आव्हान, oxidize, अपील, वर, कनेक्शन, संयोजन, संयुक्त, फ्यूजन, आमंत्रण, आजीवन, संभाषण, फोन
का: समान, तसेच
गमावले: नुकसान, गमावू, गहाळ, अदृश्य
हजार: thousandth, कपडे, कापड
कुटुंब: घरगुती, हयात
आत्मा: आत्मा, भूत, मास्टरमाईंड
काळजी: संबंधित, चिंता, लक्ष, ध्यान, सेवा, प्रायोजकत्व, गार्ड, सुरक्षा, संरक्षण, सुरक्षा, संरक्षण, परिरक्षण, संवर्धन, कव्हरेज, संरक्षण, खबरदारी, बरा, उपचार, ताब्यात, काळजी, काळजी, काळजी
याचाअर्थअसा: ध्वनितकरणे, अर्थ, अर्थ, अर्थपूर्ण, दर्शवितो, मध्यम, एजंट, मध्यम, सरासरी, मध्यम, मूलत:, समजून
विविध: भिन्न, भिन्न, विविध, बदलेला, अनेक, फरक, स्वतंत्र, फरक, स्वतंत्रपणे, परिवर्तनशीलता, विभेद, विपरीत, जिच्यामध्येvariant, बदलू, विविध, इतर, आणखी, आणखीएक, अनेक, वेगळ्या, विविध
संभाव्यमूड: 
allativeकेस: 
anthropicलिंग: 
पाच: पाचव्या, वर्ष, साठी
राहतात: जीवन, टिकून, वागणे, जिवंत, घरटे, जिल्हा, शेजार, शेजार, जिवंत, चैतन्यशील, कच्चा, सरळ, सोपे, निर्जन, थेट
विविधविषय: 
उत्तर: उत्तर, उत्तर, प्रतिसाद, उपाय, संबंधित, प्रतिसाद, उत्तर, उत्तर
समुद्र: महासागर, सागरी, 
भीती: हताश, भीती, दहशतवादी, दरारा, भीतीवाटायलालागली, पॅनिक, चिंता, तीव्रचिंतावअस्वस्थता, भयपट, घाबरणे, भयभीतझालेला, अकारणभीती
कठीण: कठीण, ताठ, क्लिष्ट, असह्य, मोठ्याने, बळजबरीने, भयंकर, कठीण, कठोर, आव्हानात्मक, अवघड, घन, घट्ट
अटी: टर्म, परिभाषा, समस्या, आधारित, कारणास्तव, आधार, मूलत:, मूलतः, मुळात, मालमत्ता
यातकाहीशंका: संशय, अविश्वास, , संशयित, पुरवठादार
संशयास्पदमूड: 
काळा: ब्लॉक
सुंदर: चांगला, छान, सुंदर, सुंदर, छान, तेही, फॅन्सी, थंड, गोंडस
गडद: विषाद, अंधार
क्रमवारी: वर्गीकरण, वर्गीकरण, वर्गीकरण, प्रकारची, प्रजाती, विविध, आयटम
दहा: दशकात, दहावाभाग, गोरा
शो: प्रदर्शन, सुरू, कामगिरी, प्रात्यक्षिक, सादरीकरण, सूचित, दर्शवितो, कार्यक्रम, प्रोजेक्शन, प्रदर्शित, कला, प्रतिमा, रेखाटन, स्क्रीनशॉट
कथा: समज, इतिहास, गोष्ट, कल्पनारम्य, प्लॉट, कथा, चर्चा, विषय
पुस्तक: स्क्रोल, राखीव, पाउंड, पाठ्यपुस्तक
इलेक्ट्रॉनिक: इलेक्ट्रॉनिक्स, इलेक्ट्रॉन, आकाशातचमकणारीवीज, विद्युत, वीज, विद्युत, , ई-मेल, माजी
खाते: कारण, कारण, गणना, मोजणी, गणिताचीएकशाखा, बिल, गणना, गणना, मानतो, अंकगणित
चिन्ह: मार्कर, शोधकाढूण, माग, धावसंख्या, , हायलाइट, घडयाळाचा, टॅग, चिन्ह, सिग्नल, संकेत, सूचना, ब्रँड, वर्ण, लेबल, ठसा, प्रतिकात्मक, इशारा, चिन्ह, चिन्ह
व्याज: फूल, स्वारस्य, चिंता
लिहू: कवणे, लेखन, प्रकार, लेखी, थांबलेला
बेड: 
आवश्यक: आवश्यक, महत्वाचे, उपयुक्त, गंभीर, महत्वाच्या, लक्षणीय, बिनमहत्त्वाचे, अविभाज्य, महत्वाचा, महत्त्वाचेम्हणजे, गरज, अपरिहार्यपणे, अकर्मक, अकर्मक, अकर्मक, तातडीचे, चिकट, गरज, आवश्यक, आवश्यक
कल्पना: विचार, विचार, मत, मत, यावरविचारमंथन, विचार, कल्पना, कल्पना
vialisकेस: 
भाऊ: भावंडे, बहीण, शेकोटी, सहकारी
कधीकधी: क्वचितच, कधीकधी, कधीतरी
ओळ: वायर, थ्रेड, सलग, लेन, संचालन, डॅश, प्रकार, कर, स्क्रिप्ट, ओळी, मथळा
टेबल: डेस्क, वेळापत्रक, यादी, यादी
नदी: उशी, उशी, ढाळ
डोळा: नियुक्ती, सुमारे, बर्फ
माहिती: संदेश, स्पष्टीकरण, वर्णन, बुलेटिन, ज्ञान, डेटा, रँक, माहिती
अचानक: अचानक, अनपेक्षित
विचित्र: एकदम, आश्चर्य, विलक्षणगोष्ट, विचित्र, आश्चर्य, विस्मयकारक, उल्लेखनीय, विलक्षण, अविश्वसनीय, आश्चर्यकारक, विचित्र, मजेदार, परदेशी, विदेशी, अस्ताव्यस्त, असामान्य, विचित्र, अनाकलनीय, जिज्ञासू
खोल: खोलवर, खोली, व्यापक, उथळ, कसून, तपशीलवार, व्यापक, बारकाईने, खोल, आत, आत, घरातील, जंत
बदल: बदल, फरक, परिवर्तन, परिवर्तन, उत्परिवर्तन, शिफ्ट, बदल, सुधारणा, संक्रमण, एककेंद्राभिमुखता, चढ, फरक, परिवर्तनशीलता
भावना: वाटत, खळबळ, समज, ठसा, भावना, मूड, प्रभावित, भावनिक, ज्ञानेंद्रियांचा, भावना, अर्थ, आवड, लाजाळू, शुद्धी, प्रेरणा, मत, गर्भधारणा, संकल्पना
उद्देश: ऑब्जेक्ट, उद्देश, उद्देश, ध्येय, गंतव्य, उद्देश, हेतू, हेतू, लक्ष्य, फायदा, फायदा
आनंदी: आनंदी, पर्याय, आनंद, आनंद, आनंद, आनंद, आनंद, आनंद, मजा, सुखाने, नशीबवान, आनंद, इमिटिकॉन, वारंवार, आनंद, प्राधान्य, दु:खी
रक्त: रक्त, रक्तरंजित, हत्याकांड
गुलाब: गुलाबी
दक्षिण: दक्षिण, दुपारी, मायाहया
थंड: हिवाळा, थंड, थंडपणे
स्थान: स्थान, परिस्थिती, स्थिती, संधी, संधी, जागा, भूमिका, पवित्रा, जागा, पोस्ट, आयटम, आवड, घालणे, स्थित, स्थान
उभे: स्टेशन, उभ्या, वृत्ती, भूमिका, थांबवू, पवित्रा, ठरू, फुले, असेल, राहू, राहतील, अस्तित्वात, विरुद्ध
समजा: समज, गृहीतधरलेलीगोष्ट, गृहितधरू, अवलंब, मानणे, hypothesize, घालणे, घरगुती, supposedly
माझे: माझे
कट: अभाव, उणीव, कपात, कमतरता, कमी, कमतरता, नाही, पठाणला, व्यत्यय, बारीकतुकडेकरणे, तिरकीरेघ, पीक, तुटलेली, उल्लंघन, कट
प्रत: पुनरुत्पादित, उत्तर, हुबेहुबप्रतिकृतीतयारकरणे, ध्वनिमुद्रण, फोटोकॉपी, क्लोन, आवृत्ती, नियम, , संपत्ती
पती: मनुष्य, पती,पत्नी
सहा: सेक्स
कमी: कमी, लहान, स्वस्त, स्वस्तात, गर्भपात, किमान, तळाशी, उथळ, कंटाळवाणा, कमतरता, कमी, कमी, कमी, कमी
लक्षातठेवा: टीप, आठवणे, आठवणकरून, लक्षात
परिणाम: प्रभाव, परिणाम, ठसा, परिणाम, वर्चस्व, कार्यक्षम, प्रभावीपणे, परिणामकारकता, परिणाम, परिणाम, असुरक्षितता, परिणाम, परिणाम
पडणे: शरदऋतूतील, केस, स्थित, क्रॅश, याकुशीवरुनत्याकुशीवरलोळणे, यंत्रातीलबिघाड, संकुचित, थेंब, घट, कमी
वगळता: तोपर्यंत, बाहेर, याशिवाय, आमच्यापासून, बाहेरच्या, आमच्या, वगळल्यामुळे, बाजूलापासून, न
कॉपीराइट: 
सैन्य: सैनिक, टोळी, यजमान, सैनिक
एकहीरननाही: पळून, काढूनटाकावे, चालू, कार्यान्वित, येथपासूनचालवतात, ड्राइव्ह, गियर, ऑपरेशन, कार्यरत, एकहीरननाही
घोडा: घोड्याचानाल, येथे, शेरा, शेवट
भविष्यात: नंतर, त्यानंतर, त्यानंतर, हिवाळा
पश्चिम: पश्चिम
द्या: वेतन, वेतन, पगार, मुसंडी, पैसे, remunerate, शुल्क, खर्च, द्या
लाल: कपात
सोने: 
इच्छा: संकल्प, उत्सुक, भूक, इच्छा, खूपआतुरतेने, उद्युक्तकरणे, लालसा
प्ले: नृत्य, जुगार, खेळ, गाल, टॉय, रोल, फिरकी, फिरवा
मास्टर: स्वामी, प्राथमिक, मुख्य, प्राध्यापक, वर्चस्व, राज्य, श्री, गृहस्थ, अग्रगण्य, सत्कार, मालक, मास्टरमाईंड, नियंत्रण
कार्यालय: एजन्सी, डेस्क, मंत्रालयाने
सरकार: राज्य, सलग
चर्च: 
लांबी: उंची, समुद्रसपाटीपासूनचीउंची, कालावधी, बाजूने, कालावधी, उंच
कंपनी: टणक, महामंडळ, समाज, व्यवसाय, कॉर्पोरेट, अस्तित्व, संस्था, एजन्सी, संस्था, उपक्रम, एंटरप्राइज
कागद: पत्रक, कार्ड, सनद, वृत्तपत्र
शक्यता: शक्यता, शक्यता, शक्यता, शक्यतो, संभव, आशा, संधी, संभाव्य, चल, शक्यता
विशेषत:: विशेष, खास, विशेषत, विशेषतः, विशिष्ट, नक्की, प्रामुख्याने, मुख्यतः, प्रामुख्याने, विशिष्ट, महत्त्वाचेम्हणजे, विशेषत:
सहन: वाहून, सहन, सहनशीलता, सहिष्णुता, आहे, प्रदेशताब्यात, घेऊ, सहन
विंडो: 
करार: प्रोटोकॉल, सेटलमेंट, तडजोड, एकमत, करार, सहमत, करार, एकमताने, निविदा, जीवा, करार, अधिवेशन, व्यवस्था, करार
सौंदर्य: सुंदर, तेज, सौंदर्याचा
कर्तव्य: दायित्व, जबाबदारी, बंधन, जबाबदार, सीमाशुल्क, कार्य, नेमणूक, कर्ज, देणे, आहेते, कामावर, प्राक्तन
पाठवा: प्रक्षेपित, सादर, पोस्ट, प्रसारण, ई-मेल, यारोगाचाप्रसार, पाहिजे, वितरीत, सादर
अंतर: काढण्याची, श्रेणी, वेगळे, रस्ता, अंतर
शांतता: stillness, शांत, मूक, एकाकीपण, शांतता
पाऊल: पाय, थांबवणे, मांडी, पायाचेबोट, तिमाहीत, पंजा, चालू, योग्य, पाऊल
वन्य: गळा, बेकायदेशीर, भयंकर, वन्यजीव, जंगल
मरण: मृत, संपणारा, बंद, बंद
जतन: बचत, परिरक्षण, पुनर्प्राप्त, जतन, संवर्धन, लक्षात, स्टोअर, परतविकतघेणे, बचाव, रेकॉर्ड, संरक्षण, रक्षण, सुटका
हिरव्या: कच्चा, क्रूड
समस्या: त्रास, समस्या, समस्या, दु:ख, अडचण, कणीकमळणे, दु:ख, समस्याप्रधान, अडथळा, बेचैन, पेच
स्मित: विकटहास्य
चुकीचे: चूक, त्रुटी, चुकीचा, वाईटरीतीने, चोरी, खोटे, चूक, अपयश, दोष, चुकून, बोलण्यातीलअगरवागण्यातीलप्रमाद
झोप: झोप, स्वप्न, डुलकी
quotativeकेस: 
सुरवात: सुरू, प्रारंभ, कामहातीघेतले, सुरवातीपासून, दिसायलालागायच्या, लवकर, प्रारंभिक, दीक्षा, पदार्पण, तत्त्व, आरंभ, आरंभ
कारवाई: कार्य, बिंदू, पाऊल, टप्पा, कायदा, प्रक्रिया, सक्रिय, ऑपरेशन, कार्यरत, सक्रिय, कार्यकर्ते, हलवा, सराव, सराव, येथपासूनचालवतात, शेअर, अंमलबजावणी, कार्यान्वित, आचार
भेट: प्रवेश, मुलाखत, उपलब्ध, प्रवास, ट्रिप, प्रवास, दौरा, तत्वज्ञान, टीका, भेट, भेट
अनुसरण: पालन, पालन, खालील, पाठपुरावा, ट्रॅक, सोबत, पालन, त्यानंतरच्या, टिकूनराहाणे
प्रयत्न: प्रयत्न, प्रयत्नकेला, प्रयत्न, पुढाकार, प्रयोग, चाचणी, नमुना, व्यासंग, चाचणी, परीक्षा, परीक्षा
उपस्थिती: अस्तित्व, अस्तित्वात, अस्तित्व, मालमत्ता, घटना, दृष्टी, उपस्थिती
जड: पुनरावृत्ती, जोरदारपणे, कठीण, तीव्र, वजन, गंभीरपणे, प्रचंड, यकृत, प्रचंड, भव्य
गोड: , कँडी, सभ्य, बेचव, गोंडस
तोंड: तोंडी, घोकूनघोकून, आचमनघेणे, चेहरा
श्रीमंत: भरपूर, मुबलक, श्रीमंत, ड्रेस, उदार
शत्रू: विरोधी, विरोधक, विरुद्ध
जहाज: बोट, जहाज, चपळ, समुद्रपर्यटन, भांडे, समुद्रपर्यटन, फेरी, पोट, जहाज
अट: पण, बेटिंग, राज्य, परिस्थिती, परिस्थिती, स्थिती, दैव, टप्पा, पातळी, फिटनेस, गरज
यासह: असू, समावेश, समावेश, संबंधित, समावेश, वगळल्यामुळे
समावेशकव्यक्ती: 
दिसून: देखावा, उद्भवू, दिसणे, उदय, दृश्यमान, वाटते, दिसत, वारंवारप्रकट
गुप्त: अनाकलनीय, गूढ, पिन, भूमिगत
कृपया: प्रेमळ, विचारू, कृपा
precativeमूड: 
विनयशीलनोंदणी: 
वाईट: हानी, ओंगळ, लबाडीचा, वाईट, वाईटरीतीने, भीषण, आजारी, वाईट
मार्च: प्रर्दशन, निषेध, प्रात्यक्षिक, मंगळग्रह
हळूहळू: हळूहळू, मंद, हलक्या, हळुवारपणे, उशीरा, हळूहळू
त्याऐवजी: त्याऐवजीच्या, ऐवजी, याशिवाय, बदलण्याचीशक्यता, पर्याय, वैकल्पिकरित्या, वतीने
निळा: निळसर
अशक्य: 
शाळा: कॅम्पस, शिडी
प्रसंगी: संधी, कार्यक्रम, घटना, संधी, दुतर्फाझाडेअसलेलारस्ता, करार, वाजले
लग्न: लग्न, लग्न, लग्न
अन्न: जेवण, आहार, ताटली, अन्नदेणे, जेवण
वीस: 
सहज: शक्यता, सहजगत्या, जबाबदार, सोपे, सोयीसाठी, थोडा, किंचित, हलके, सोयीस्कर, सोपे, थोडक्यात
संभाव्यपैलू: 
भाषा: भाषिक, जीभ, बेस
अभिव्यक्ती: व्यक्त, विधान, वाक्यांश, स्वत:चीमतेस्पष्टशब्दातमांडूशकणारा, असुरक्षितता, शेवट, समीकरण, निवेदन
आठवड्यात: रविवारी, साप्ताहिक
हॉल: थिएटर, बोळीत, जागा, खोली, विद्यमानचित्रकारांच्याकलाकृतींचेप्रदर्शन, कोच, जायचीवाट, धावणारामाणूस, लॉबी, भोक, खेचणे
धोका: धोकादायक, धोका, , आदर
नेहमीच्या: साधारणपणे, सामान्य, सामान्य, नियमानुसार, , सहसा, सामान्य, असामान्य, सामान्यपणे, विनम्र, सामान्य, अनियमित, परंपरागत, ठराविक, , साधारणपणे, विशेषत:, मुख्यप्रवाहात, नियमित, , साधा, अंदाजे, सोपे, मध्यम
जन्मत:: जन्म, पुनर्जन्म, नैसर्गिक
न्यायालयाने: न्यायालयीन, ताटली, मंच, दावा
म्हणीसंबंधीपैलू: 
वाचतो: पात्र, मूल्य, मौल्यवान, वैधता, गुणवत्ता, खर्च, किंमत
झाड: वनस्पती, लाकूड, पन्हाळे, इमारतीलाकूड
भिंत: 
आकाश: आकाश
inchoativeपैलू: 
jussiveमूड: 
टोन: खेळपट्टीवर, चाल, टन, टन, सावली, , आवाज
संबंधित: आदर, गृहितधरू, मानणे, लक्ष, विचार, विचार, संबंध, असोसिएशन, नाते, शेरा, कव्हरेज, संबंध, संबंधित, संबंधित, संबंधित, संबंधित, संबंधित, संबंधित, संबंधित, संबंधित, संबंधित
महिन्यात: चंद्र
अनुभव: प्रायोगिक, अनुभवात्मक, अनुभवी, कौशल्य, कळकळ, प्रयोग
परिस्थिती: परिस्थिती, परिस्थिती, परिस्थिती, तोंडहाती
ताज्या: जोमाने, शुद्ध, स्वच्छ, , नवीन, अननुभवी, नवीन
सरदार: अधिकारी, राजा, सरदार
झाकून: पांघरूण, कव्हरेज, बंद, बंद, घरातील, कव्हर, राज्य
बांधील: प्रमाणात, मर्यादा, मर्यादा, सीमा, निर्बंध, मर्यादित, जोडलेले, अवलंबून, बांधून, सीमा, बांधणे
पूर्व: पूर्व, पूर्वी, मागील, अगोदर, पूर्व, पूर्वेकडेतोंडकरून
दगड: संगमरवरी, खडक, रत्न
दिशा: आवड, आकारमान, कल, पैलूपाडणे, सूचना
खुर्ची: आसन, आरामखुर्ची, स्टूल, कोच
आधार: मिळवणं, मान्यतादेणे, मदत, मदत, कंस, मदत, आधार, आधार
तारीख: इतिहास, चकमकीत
गावात: लहानसेखेडे, शेतात
शेत: गोल, क्षेत्र, प्रदेश, प्रदेश, क्षेत्र, झोन, क्षेत्र, डोमेन, रिंगण, स्टेडियम, जागा, मार्जिन, शेतात, छावणी, शेत
प्रतीक्षा: अपेक्षा, धरा, राहू
परवानगी: परवानगी, कान, परवानगी, मंजुरी, सोडून, परवाना, परवाना, संमती, संस्करण, ताब्यात, मान्यता
परवानगीमूड: 
यश: यशस्वी, यशस्वी, समृद्धी, यश, विजय, विजय, दाबा, विजय, विजेता, यश
डोंगराळ: डोंगर, डोंगरावर, ज्वालामुखी
संगीत: संगीत, शास्त्रीय
शरिराच्यामध्यापासूनकिंवाउगमस्थानापासूनदूरएदूरस्थभावनाव्यक्तकरणारा: 
दुपारी: p.m., दुपारी, मायाहया, संध्याकाळी
आक्रोश: दु:ख, ओरडणे, किंचाळणे
सन्मान: सन्मान, आदर, मोठेपण, आदरणीय, आदरणीय, आदरार्थी, शिष्टाचार, गौरव, दर, किंमत
सात: 
खाजगी: वैयक्तिक, स्वत:ची, वैयक्तिकरित्या, विशेष, गोपनीयता, विशिष्ट, विशेष
बसून: राहू, ठरविणे
बातम्या: संदेश
देखावा: जागा, दृष्टी, संदर्भ, प्रदर्शन, व्हिज्युअल, टप्पा, दृश्य, आशा, तंबू, देखावा
बाग: , पार्क
शर्यत: वांशिक, रेसिंग, चालू, स्पर्धा, यास्पर्धेत, निविदा, जातीच्या, सामना, राष्ट्र, चढणे, नाडी
व्यक्तीदर्शककेस: 
जाणून: अभ्यास, शिक्षण, जाणून
राजकीय: राजकारण, राजकीय, राजकारणी, धोरण
भाषण: व्याख्यान, चर्चा, संभाषण, प्रवचन, स्पोकन
खोटे: खोटे, बाला, फसवणूककरणारा, हाताळू
टाकले: फेकणे, फेकणे, फेक, नाणेफेक, स्वरूप, साचा, लाँच, शेड, राजीनामा
खाणे: जेवण, अन्नदेणे, ताटली, जेवण, वापर
मजला: गालिचा, जमिनीवर, तळाशी, माती, चालणे, उच्च, उंच, गंतव्य
उन्हाळ्यात: उष्णता, गरम, गरम
धर्म: धार्मिक, कर्ज, मार्ग, वाढवणे
चित्र: पोर्ट्रेट, चित्रकला, प्रतिमा, फोटो, फोटोग्राफिक, फोटोग्राफी, फोटो, फोटोकॉपी, रेखाचित्र, स्नॅप, चित्रपट, उदाहरण, चित्र, अंजिराच्या, आकृती
सुटलेला: पळून
लेखक: लेखक, शिक्षक, संपादक
तपकिरी: राखाडी, राखाडी, सन्टॅन, कांस्य, चॉकलेट, गहू
निर्धारित: निर्धार, निर्णय, निर्धारित, निश्चित, खंबीर, डिझायनर, निर्दिष्ट, खात्रीकरूनघेणे, स्थिर, काही, निर्णय, determiner, निश्चित
वेदना: दुखापत, दु:ख, वेदनादायक, दु:ख, घसा, वेदना
वसंतऋतू: हलकीफुलकी, आमच्या, आमचा
मऊ: concessive, गुळगुळीत, बारीक, निविदा, हलक्या, हळुवारपणे, सभ्य, बेचव, सौम्य, नाजूक, नैसर्गिक
कोपरा: कोन, रुंद
: , , , , , , , , , , , , , , , , , , , , , , , , , , , , , , , , , , , , , , , , , , , , , , , , , , , , , , , , , , , , , , , , , , , , , , , , , , , , , , , , , , , , , , , , , , , , , , , , , , , , , , , , , , , , , , , , , , , , , , , , , , , , , , , , , , , , , , , , , , , , , , , , , , , , , , , , , , , , , , , , , , , , , , , , , , , , , , , , , , , , , , , , , , , , , , , , , , , , , , , , , , , , , , , , , , , , , , , , , , , , , , , , , , , , , , , , , , , , , , , , , , , , , , , , , , , , , , , , , , , , , , , , , , , , , , , , , , , , , , , , , , , , , , , , , , , , , , , , , , , , , , , , , , , , , , , , , , , , , , , , , , , , , , , , , , , , , , , , , , , , , , , , , , , , , , , , , , , , , , , , , , , , , , , , , , , , , , , , , , , , , , , , , , , , , , , , , , , , , , , , , , , , , , , , , , , , , , , , , , , , , , , , , , , , , , , , , , , , , , , , , , , , , , , , , , , , , , , , , , , , , , , , , , , , , , , , , , , , , , , , , , , , , अगोदरनिर्देशकेलेल्याबाबीसंबंधीबोलताना, एक, एक, सादर, मजबूत, , , , , , , , , , , , , , , , , , , , , , , , , , , , , , , , , , , , , , , , , , , , , , , , , , , , , , , , , , , , , , , , , , , , , , , , , , , , , , , , , , , , , , उद्योग, 
निर्मिती: उत्पादन, निर्माण, उत्पादक, तयारकरणे,बनवणे, उत्पादन, उत्पादन, पीक, पिके, उत्पादन, निर्मिती, निर्मिती
हास्य: थट्टाकरणे, हशा
विसरू: दुर्लक्ष, नाकारू, लक्षद्या,
युरोप: 
आठ: आठव्या
उत्तीर्ण: करून, माध्यमातून, पास, द्वारे, निघूनगेलीआहे, रस्ता, ओलांडणे, शिफ्ट, संक्रमण, जायचीवाट
भयानक: भीषण, अत्यंतकुरूप, आतिशय, भीतीदायक, प्रचंड, शोकांतिकेचा, भयानक, घाबरणे, राक्षसी, फारच
फायद्यासाठी: हेतू, मर्जी, मर्जी
श्वास: श्वसन, श्वास, श्वास, उच्छ्वास, अहंकार, धापाटाकणे, उसासा, हळूआवाजातबोला, श्वासाद्वारे, श्वास
ज्ञानी: वाजवी, शहाणा, सुज्ञ, विवेकी, हुशार, स्मार्ट, बुद्धिमान, प्रौढ, तल्लख
मालकीचेमार्कर: 
आनंददायी: सुखकारक, आनंददायक, अनुकूल, आरामदायक, आरामात, बाब, छान, छान, प्रकारची, सुंदर, मजा
उत्तमप्रकारे: संपूर्णपणे, पूर्णपणे, पूर्णपणे, पूर्णपणे, सक्रियपणे, परिपूर्ण, खरोखर, पूर्णपणे, जोरदार, नक्की, पूर्णपणे, संपूर्ण
स्मृती: लक्षात, संदर्भ, स्मारक, शोधकाढूण
गंभीर: गंभीर, तीव्र, जोरदारपणे, दफनभूमी, गंभीर
आधुनिक: समकालीन, अत्याधुनिक, आधुनिकीकरण, फॅशनेबल, अलीकडील, प्रवचन, नंतरचे, प्रगत, आजकाल
स्पॉट: बिंदू, एकूण, वाजले, स्थान, डाग, पॅच, जागा, कोठेहीनाही, आवारात, स्थान, जागा, स्थानिक, शोधूनकाढणे, चिन्ह, कोलन
ब्रेक: ब्रेकमध्ये, ब्रेक, रिसॉर्ट, कोच, व्यत्यय, मध्यांतर, अंतर, तुकडेतुकडे, छिन्नभिन्न, थांबवू, विरामद्या, व्यत्यय, अस्वस्थ
बेट: 
स्पर्श: संपर्क, टॅप
समान: समतुल्य, त्याच, समान, यथायोग्य, ठीकआहे, सर्वयोग्य, तितकेच, पदवी, समता, तोच
किनारा: बॅकअप, नदीचाकाठ, कोस्ट
जेवचनदिलेआहे: पाप, बांधिलकी, प्रतिज्ञा, नियुक्ती, हमी
commissiveमूड: 
योजना: योजना, करार, कार्यक्रम, कार्यक्रम, पुढाकार, नियोजक, , प्रस्ताव, प्रकल्प, प्लॉट, रेखाटन, प्रोजेक्शन, मांडणी, फ्लॅट, रेखाचित्र, डिझाइन, विधान, नियोजन, योजना
आश्चर्य: थक्ककरणारा, अनपेक्षित, अपघाती, आश्चर्य, आश्चर्य, आश्चर्याचीगोष्ट, आश्चर्य
मिनिट: 
शॉट: अंकुर, शूटिंग, बंदूकीचीगोळी, दारुगोळा, फोटो, फोटो, मोठाधक्काबसलाआहे, मोठाआवाज, निर्णायक, फेकणे, फ्रेम, जोर
आघाडी: नेतृत्व, अग्रगण्य, जहाज, बंदूकीचीगोळी, ड्राइव्ह, मार्गदर्शन, आणण्यासाठी, जनावराचे
काच: आरसा, क्रिस्टल, किलकिले, चष्मा, पान, निर्यात
बोर्ड: स्लॅब, परिषद, वर, जाणे, सायकल, गट, समिती, पॅनल, सल्ला, धार, आयोग, टॅबलेट, संस्करण
उदाहरणार्थ: उदाहरणार्थ, उदाहरण, मॉडेल, नमुना, रूपकाच्या, नमुना, म्हणून, प्रतिनिधित्व, नमुना, केस, पायंडा, नमुना, नमुना, स्पष्ट, होय
सुरक्षित: सुरक्षित, सुरक्षा, सुरक्षा, सुरक्षितपणे, विश्वास, विमा, आपलीखात्रीआहेकी, निरुपद्रवी, काढण्याची
डॉक्टर: वैद्य, थेरपिस्ट, व्यवसायी, वैद्यकीय, दंतवैद्य
वर्ग: प्रकारची, कक्षा, वर्ग, ग्रेड, वेगळे, थर, श्रेणी, रँक, जिल्हा
completiveपैलू: 
पुनरावृत्ती: वारंवार, नियमित, सतत, सतत, कधीकधी, वारंवार, नियमितपणे, , पुनरावृत्ती, पुन्हापुन्हा, पुनरावृत्ती, पुनरावृत्ती, पुनरावृत्ती
लष्करी: कंट्री
उबदार: गरम, उष्णता, कळकळ, तापमान, गरम, ग्रॅम, आर्द्र
पेय: पेय, दारूचीनशा
राग: राग, संताप, बलात्कार, संतप्त, असूनही, पुन्हापाठविले, राग
थेट: सरळ, थेट, अप्रत्यक्ष, स्वयंचलित, सोपे, तत्काळ, सरळ, लगेच, शाब्दिक
हॅट: टोपी, शिरस्त्राण
कुत्रा: 
नोकर: कारभारी, वेटर, , दासी, गुलाम, घरगुती
गर्व: गर्विष्ठ, अभीमान, अभिमानाने, गर्व
गर्दी: गर्दी, गर्दीच्या, जमावाने, रक्कम, प्रमाण, लोकसंख्या, यजमान, ब्लॉकला, जास्त, अनेक, असंख्य, गंभीरपणे, जरुरीपेक्षाजास्त, मोठ्याप्रमाणात, कळप
गाडी: चारचाकीघोडागाडी, कार, गाडी, कार्ट, रेल्वे, रेल्वे, शिकवणे
नैतिक: सदाचरण, नैतिक, नैतिक, आचारसंहिता, मानसिकधैर्य, आध्यात्मिक
ग्रीक: 
फिट: खटला, योग्य, उपयुक्त, सुसंगत, योग्य, सोयीस्कर, योग्य, संबंधित, पात्र, संबंधित, एकमताने, समायोजित, अचूक, तंतोतंत, एकाचवेळी
प्रविष्ट: लॉगइन, नोंद, राज्य, सूचित, समाविष्ट, समावेश, नोंदणी, नोंदणी
नियम: प्रशासन, वर्चस्व, राजवट, न्याय, निर्णय, न्याय, पंचम्हणूनकामकरणे, राज्य, कायदा, कायदे, नियम, राज्य, नियमन, राज्य, नियम, नियम
तलवार: गवताचेपाते, चाकू
हल्ला: आक्रमण, आक्रमण, आगळीक, गुन्हा, हल्ला, गुन्हा, स्ट्राइक, दिसायलालागायच्या, आक्षेपार्ह, हल्ला
आरोग्य: निरोगी, सलाम
परिच्छेद: काव्य, खंड, हिस्सा, बिंदू, वृत्ती, भूमिका, समता
सामाजिक: समाज, सामाजिक
परतावा: उत्तर, प्रतिसाद
दु:ख: दु:ख, काठी, क्षमा, निमित्त, दिलगिरी, दु:ख, दु:ख, दु:ख, दु:ख, दु:ख, दु:ख, दु:ख, दु:ख, दु:ख, दु:ख
धैर्य: खुडणे, धीट, विश्वास, मज्जातंतू, मनोधैर्य, छाती, शूर, भांडे
अधिकृत: औपचारिक, औपचारिकपणे, अधिकृतपणे, अधिकारी, लिपिक, नोकरशाही, अधिकृत
प्रदान: प्रदान, ऑफर, प्रदान, परिचय, उपलब्ध, पुरवठा, तरतूद, पूर्ण, तर
विनंती: प्रार्थना, मागणी, दावा, आवश्यक, गरज, चौकशी, चौकशी, संकेत, बोली, अर्ज, इच्छा
दृष्टीक्षेपात: ओझरतेदर्शन, दृश्य, वृत्ती, समज, दृष्टीकोन, दृष्टी, दिसत, सहजलक्षात, टकलावूनपाहणे, तीक्ष्ण
प्रसार: तपशील, वाढवणे, विस्तार, विस्तार, विस्तृत, व्यापक, प्रभाव, प्रसार, स्कॅटर, आतप्रवेशकरणे, मोठेपणा, प्रसार
उलट: समोर, विरोध, उलट, विरोध, विरुद्ध, ओलांडून, काउंटर, विपरीत, नाकबूल, उलटा, झटका, विरुद्ध, विरोधी, विरोधी, उलट
बारा: डझन
व्यस्त: प्रतिबद्धता, व्यस्त, सहभागी, सहभागी, व्यापलेल्या, व्यस्त, दुमडणे, हटवादी, व्यस्त
वाइन: दारू, मद्यपी
चव: चव, चव, मधुर, आमिष, कळकळ
लोखंड: स्टील, धातू
वितरण: प्रक्षेपित, तैनातकरणे, प्रकाशित, प्रकाशन, प्रसार, प्रसार, वितरण, वाटप, शेअर, पाणलोट, विभाजित, तेविभाजित, वर्गीकरण, व्यक्तीदर्शक, वितरण
व्यापार: ट्रेडिंग, व्यवसाय, वाणिज्य, व्यापारी, इंटरनेट, करार, व्यवहार, विपणन, व्यावसायिक
न्यायाधीश: न्याय, न्याय, पंचम्हणूनकामकरणे, जूरी
चिंता: आणीबाणी, निकड, संबंधित, तोंडचे, काळजी, चिंता, चिंता, काळजी, विवेकी, अस्वस्थ, काळजी, भीती, उत्सुक, त्रासदायक, भयानक, उत्साहपूर्ण, उत्सुक, अस्वस्थ, अस्वस्थ, कुतूहल, अशांतता, तीव्रचिंतावअस्वस्थता
कर्णधार: 
समाप्तीपैलू: 
परदेशी: परदेशात, उपरा, परदेशी, विदेशी, परदेशी, बाह्य, भारताबाहेरील
intensifier: तीव्र
महत्त्व: गरज, समर्पकता, अर्थ, महत्व, महत्वाचा, भर
शेवटी: शेवटी, अखेरीस, मर्यादित, अंतिम, अंतिम, टर्मिनल, बारीक, शेवटी, पाडाव
सिद्ध: पुरावा, पुष्टी, जाहीरकरणे, ठेवावी, साक्ष, समजून, सिद्ध
टाळण्यासाठी: अर्धवट, मना, अडकवूनठेवणे, दडपूनटाकणे, प्रतिबंधित, मना, ब्लॉक, काहीकरुनदेणे, नाउमेद, प्रतिबंधकरणे, टाळण्यासाठी, दडपणे, निलंबित, थांबवणे
मान: घसा, आयटम
मनोरंजक: मजा, गमतीशीर, मनोरंजक, बाब, आकर्षक, आकर्षित, प्रभावी, काढणे, अपील, मागे, रोमांचक, जिज्ञासू
कायदेशीर: न्यायालयीन, कायदा, कायदेशीर, फ्रेम, प्रमेये
कोरड्या: स्टेम, पावडर
सेवा: सेवा, कमवा, पूर्ण, ऑफर
पुरावा: साक्षीसंबधी, पुरावा, मार्गदर्शन, सूचना, डिरेक्टरी, प्रदर्शन, साक्षीदार, स्पष्ट, साक्ष
साक्षीसंबधीकेस: 
लांबच्या: लांब, आतापर्यंत, बंद, आमच्या, लॅपटॉप, दूरस्थ, अलिप्त, सर्वातलांब, मनातूनकाढूनटाकणे
प्रगती: लांबटांगाटाकतचालणे, प्रगती, विकास, पुरोगामी, विकास, प्रगती, पुढे, सुधारणा, उचलणे, वाढ, जाहिरात, रीतीने, प्रक्रिया
अरुंद: पातळ, घट्ट, लहान, बांधणे, त्रासदायक, कमी, मर्यादित
इमारत: तयार, रचना, बांधकाम, बांधकाम, आवारात, इमारत
शोध: शोधणे, शोधू, शोध, शोध, शोध, शोधत, शोधतात, संशोधन, सर्वेक्षण, उद्योगधंदा, चौकशी, तपास, चौकशी, शोध, शोध
दु:खी: उदासीन, खिन्नपणे, दीन, अस्वस्थकरणारी, नाराज, टोचणी, दु:खी
पाप: दोषी, खिन्नपणे, पाप
आजारी: आजारी, घसा, आजार, रुग्ण, आजारपण
प्रामाणिक: प्रामाणिक, निष्ठावंत, प्रामाणिकपणे, स्पष्टवस्वच्छ, सरळ, अप्रामाणिक
बँक: खंडपीठाने, कथील
वन: जंगल, वनीकरण
मोजण्यासाठी: गेज, मापन, तोलणे, मीटर, मीटर
प्रवाह: प्रवाह, खंड, चालू, वीज, ढाळ, जेट
काळजीपूर्वक: लक्षपूर्वक, काळजीपूर्वक, सावध
भाकरी: बेककरावे, पेरणी, सँडविच, भाकरीचातुकडा, पॅन
अतिरिक्त: अतिरिक्त, सुटे, आणखी, जादा, अतिरिक्त, पुढील, याव्यतिरिक्त, पुरवणी, जोडा, परिशिष्ट, परिशिष्ट, बाजूकडील, बोनस
निवडा: निवड, निवड, निवडा, पसंतीचा, निवडा, निवडलेल्यालोकांना, डायल, मत, परीक्षा, प्राधान्य, नियुक्ती
प्राणी: प्राणी, प्राणी
प्राणीजीवनासंबधीचेलिंग: 
eventiveमूड: 
गुणाकारात्मककेस: 
प्राप्त: लाभ, घेणे, संपादन, प्राप्त, करा, शोधणे, सुरक्षित, रक्षण, मिळवणं, साध्य, प्राप्त, आहे, पूर्ण, साध्य, लग्न
पार: ओलांडून, ओलांडणे, पास, पेक्षाजास्त, आतप्रवेशकरणे
जाड: लठ्ठपणा, दाट, घनदाट, चरबी
वाढतात: जोपासणे, जाणे, वाढ
पाऊस: ओले, पाऊस, शॉवर, पर्जन्य, नॉन, झाडू
शांतपणे: 
पृष्ठभाग: चेहरा, पातळी, विमान, क्षेत्र, थर
पवित्र: पवित्र, तेजस्वी
जुलै: 
फॅशन: फॅशनेबल, रीतीने, पद्धत, दृष्टिकोन, प्रक्रिया
अहवाल: निर्धार, विधान, प्रमाण, संबंध, नाते, गोरा, प्रदर्शन, निबंध, असुरक्षितता
फाइल: दस्तऐवज, आजरात्रीचामुक्काम, चरित्रात्मकलेखलिहिणे, संग्रहण
खांदा: पन्हाळे, अक्ष, चित्र, कंगवा, हात
रॉयल: भव्य, राजेशाही, राज्य, साम्राज्य, रिअल, प्रत्यक्ष
गाणे: ट्यून, ट्रॅक, गायन, कविता, गाणे
सोई: कमी, आरामशीर, विश्रांती, उत्तेजन, सोयीसाठी, उर्वरित, मदत, सुविधा
कोणीही: कुणी, कोणीतरी, कोणीतरी, कोणीही, प्रत्येकाच्या, प्रत्येकजण, जोकोणी
गवत: गवत, तण, औषधीवनस्पती, लॉन, ग्रॅम, पेंढा
उघडण्याच्या: प्राथमिक, प्रारंभिक, शोध, अंतर, स्लॉट, उघडपणे, लवकर
जून: 
मासे: मत्स्यालय
राजधानी: धडा, फंड, मालमत्ता
स्तन: छाती, दूध
शिक्षण: शिकवणे, धडा, शैक्षणिक, साक्षरता, निर्मिती, प्रशिक्षण, सुशिक्षित, शैक्षणिक, सूचना, शिक्षण, शिक्षण
तीक्ष्ण: तेजस्वी, भयंकर, कठोर, एवढी, मसालेदार, मर्मभेदक, तीव्र, उत्सुक, खुसखुशीत, स्पष्टपणे, तीक्ष्ण
खर्च: शुल्क, खर्च, खर्च, संस्करण, उत्पादन, चार्ज, खर्च
तुमच्या: आपल्या
दशलक्ष: दशलक्षावे
प्रार्थना: विचारू, प्रार्थना, विनंतीकरणे, कर्जकाढावेलागणार
थकलेले: थकवा, दमछाककरणारी
ठार: खून, हत्या, दूर
सावली: सावली
वस्तुमान: गुणवत्ता, सामूहिक, प्रमाण, मोठ्याप्रमाणात, अनेकवचन, भरपूर, ढेकूळ, क्लस्टर, जमावाने, गुन्हा, dough, पास्ता
स्थापना: स्थापित, घन, घट्टपणे, स्थिर, निर्मिती, स्थापन, पदाधिकारी, founds, स्थापना, निर्मिती, सेट
समाधानी: आनंद, समाधान, समाधान, आनंद, पूर्णकरणे, समाधानकारक, सामग्री
तपासा: तपासा, दिसत, पाहू, , निवड, परीक्षण, तपासणी, परीक्षा, चाचणी, ऑडिट, , दरम्यानचे, सर्वेक्षण, चौकशी, खात्रीकरूनघेणे, उजळणीकरणे, नियंत्रण
सद्गुण: दया, कृपाकरून, दानशूरपणा, वैशिष्ट्यपूर्ण, गुणधर्म, विशेषगुण
सोनेरी: सोनेरी
राष्ट्रीय: राष्ट्र, राष्ट्रीयत्व, पारंपारीक, घरगुती, राष्ट्रवादी
मुख्य: पंतप्रधान, कीवर्ड, प्रमुख, मुख्य, मुख्य, अग्रगण्य, मुख्य
दरी: नदीचेखोरे
अंदाज: कयास, संशयित, मानणे, अंदाज, अंदाज, अंदाज, अंदाज, अंदाज, तर्क, दैवी, अनुमान, अपेक्षित, मूल्यांकन, मुल्यांकन, मूल्यमापन, अंदाज, अंदाज
सट्टेबाजीचामूड: काल्पनिकमूड
पिवळा: फिकटगुलाबी, अंबर, सोनेरी
राहते: अवशेष, अवशिष्ट, उर्वरित, गोळा, उर्वरित
भ्रष्टाचारी: वक्र, वाकणे, कल, पीळ, उतार, उतार, गोलाकार, समज, समज
बॉक्स: सुटकेस, ड्रॉवर, फंड, उपकरणे,कपडे,अन्यसाधनेयांचासंच, करूशकता, , बिन, , चौरस, टाइल, ग्रीड
हंगामात: हंगामी, धडा, स्टेशन, युग
विज्ञान: वैज्ञानिक, शब्दकसेबनतातत्याचेशास्त्र, भाषाशास्त्र
वरवरपाहता: जाहीरपणे, स्पष्ट, स्पष्ट, उघडपणे, स्पष्टपणे, supposedly, स्पष्टपणे, स्पष्ट
भोक: भोक, धान्यपेरण्याचेयंत्र, कंटाळवाणा, कंटाळवाणा, हलवा, त्रासदेणे, मंच, कंटाळले, एखाद्याठिकाणच्यापे्रक्षणीयवमहत्वाच्यास्थळांनाभेटदेणे
काका: मावशी
यादी: निर्देशांक, यादी, यादी, मेनू, नोंदणी
ऑगस्ट: 
शांत: शांत, निश्चल, शांत, मूक, मंद, आरामशीर, stillness, हळुवारपणे
लोकप्रिय: प्रभाव, प्रसिद्ध, प्रमुख, लोक, अग्रगण्य, ज्येष्ठ
अज्ञात: परदेशी
परिचित: मित्रांमध्ये, वंश, वंशज, वापरले
परिचितनोंदणी: 
चालणे: चालणे, चालणे, पुढे, वाढ, रपेट, पादचारी
दोनदा: दुहेरी
बौद्धिक: मन, बुद्धिमत्ता, वेडा, बुद्धिमान, मानसिक, विचारवंत, ज्ञान, आध्यात्मिक
याजक: पाद्री
जखमी: जखमी, जखमेच्या, दुखापत
राजवाडा: 
विजय: पराभव, असाठोसा, चापटमारणे, तडाखा, स्लॅम, ताल, मात, स्ट्राइक, थोडा, विजय, विजय, विजय
विदूषक: मूर्ख, युक्ती, बाला, फसवणूककरणारा, मूर्ख, मूर्ख, वेडा, वेडा, वेडा, दिशाभूल, अज्ञान, अज्ञान
नऊ: नवव्या, नवीन
सहानुभूती: दया, सहानुभूती, दु:ख, खरेप्रेम, सहानुभूती, दयाळू
स्फोट: स्फोट, स्फोट, एकदमबाहेरपडणे, वेडसर, धंद्याचीभरभराट, प्रचंड, मोठाआवाज
कपडे: ड्रेस, घालणे, एकसमान, कपडे, कपडे
साहित्य: साहित्य, साहित्य, साहित्य
संग्रह: एकाग्रता, जमा, संच, गट, संयोजन, अरे, गॅलरी, संच, पॅकेज, पोर्टफोलिओ, संश्लेषण, रिपोर्टमध्ये, निष्कर्ष, निष्कर्षकाढला, कयास, गोळा
रिक्त: रिक्त, रिक्त, ढोल, श्रम,विश्राम,, निरर्थक, शून्यता, निर्वात, व्यर्थ, फक्त
वादळ: , जहाज
खिसा: पिशवी, पॅकेट
शिक्षा: न्याय, न्याय, विधान, प्रमेय, सूचना, प्रस्ताव, शिक्षा, श्रद्धा, वाक्यांश, दोष, दोषदेणे, दंड, शिक्षा
नोव्हेंबरमहिना: 
डिसेंबर: 
काय: येऊ, घटना, असेल, उद्भवू, काय, किंवा, नाही, आगमन
अनुपस्थितीत: अनुपस्थित, अभाव, कमतरता
आभार: कृतज्ञता, कृतज्ञ, धन्यवाद, आभारआपण, देणे, स्वीकारकरता, कबूल, प्रशंसा, लेखापरीक्षक
मालिका: साखळी, स्ट्रिंग, अरे, क्रम, संच, वळण, श्रेणी, सलग
पत्ता: शोधणे
पक्षी: उड्डाण, विमान, जेट, विमान, विमान, विमान, घुबड
डगला: घालणे, कव्हर, जाकीट, फर
तयार: तयार, तयार, आयोजित, तयारी, स्वच्छपणे, हेतू, अर्जदाराच्याकुंटुबाचीसंपूर्णमाहिती, उत्सुक, नाराज, खडू, सुसज्ज, निर्माण, सेट, तयार, तयार
वेगाने: पटकन, जलद, जलद, जलद
धूर: धूम्रपान, होम, पुढेढकलू
इग्रंजीवर्षाचापहिलामहिना: 
मशीन: यंत्रणा, इंजिन, विमान
हलवून: हलवा, मोबाइल, हालणे, चळवळ, गती, स्थलांतर, घडयाळाचा
दात: दात, गियर, या, अतिशयघाणरेडा
लाज: कलंक, लाजवाटली, लाजाळू, लज्जास्पद, लाजीरवाणी, पेच, फक्त, नग्न, अपमान, बलात्कार
मेंदू: मास्टरमाईंड, सार
अंगठी: मामुली, डायल, केसकुरळेकरणे, पळवाट, टायर, टायर
वाक्यांशमार्कर: 
समजून: समजून, आकलन, अर्थ, आकलन, सहानुभूती, ज्ञान, आकलन, अंतर्ज्ञान, समज, जागरूकता
फळ: परिणाम, परिणाम
चहा: खूपआतुरतेने, कार, वर्गसमीकरण
स्पष्टकरणे: स्पष्टीकरण, स्पष्ट, व्यक्त, स्वत:चीमतेस्पष्टशब्दातमांडूशकणारा, जाहीर, स्पष्टीकरण, अर्थलावणे, टिप्पणी, अर्थलावणे, वर्णनकरणे, डिस्क्रिप्टर
आपलेस्वागतआहे: ग्रीटिंग, रिसेप्शन, मनोरंजनासाठी, अहो, हाय, सलाम
कविता: कविता, काव्य, महापालिका, वाजले
खरेदी: खरेदी, घेणे, घेऊ, बाजार, दुकान, स्वस्तात, गुंतवणूक, खरेदी
विश्वासू: अप्रामाणिक, निष्ठावंत, विश्वासाने, एकनिष्ठ, योग्य, विश्वसनीय
खळबळ: उत्तेजितहोणे, उत्सुक, गडबड, ताण, डिवचणे, आनंद, तरतरी, लाली, उत्साह, आवेश, उत्साहपूर्ण, निकड, खळबळ
एप्रिल: 
ऑक्टोबर: 
कडू: दु:ख, वेदना, दु:ख, दु:, दु:ख, वेदनादायक, कोणतेहीदु:ख, लेखी
सैल: स्वतंत्र, तोंडहाती, निराकरण, निराकरण, रिक्त, मुक्तपणे
मजकूर: शब्दरचना
सर्वातवाईट: वाईट, वाईट, उग्र, प्रतिकूल, ओंगळ, असूनही, सर्वात, सर्वाधिक, सर्वातकमी, कचरा, कचरा, कचरा
क्रेडिट: गहाण, क्रेडिटकार्ड, कर्ज, कर्जाऊदेणे, कर्जकाढावेलागणार, कर्ज, प्रतिष्ठा, वैधता, विश्वासार्हता
वैशिष्ट्ये: घटक, कार्ये, पैलू, वैशिष्ट्य
सक्षम: सक्षम, सक्षम, सक्षम, क्षमता, क्षमता, सामर्थ्य, संभाव्य, घेऊ, कुशल, प्रतिभावान, कौशल्य, परिणामकारकता, लायकी, कुशल, कार्यक्षमता, उपयुक्त
पंधरा: 
क्रूर: भयंकर, कठीण, दुष्ट
सामील: सहभागी, उपस्थित, सहभागी, आरंभ, पालन, सहभागी, सहभाग, एकहोणे, कनेक्ट, नवोदित, संपूर्ण
गुन्हा: दोषी, गुन्हा, गुन्हा, गुन्हेगार
धूळ: धरण, पावडर, घाण
व्यावहारिक: फंक्शनल, हटवादी, प्रत्यक्षव्यवहारात, सोयीस्कर, अक्षरशः, सुलभ, लागू
रंग: रंग, रंग, रंग, फिकटगुलाबी, रंगीत, रंगीत, लाली, रस्ता, कोडींग
नष्ट: हो, ढासळूनटाकणे, यंत्रसामुग्री, मानहानी, नाशकरणे, क्रश, तुकडेतुकडे, देशोधडीस, घोटाळा, पुसून, रद्दकरणे, नाश
वाढ: पुढे, वाढविण्यासाठी, डोंगरावर, वाढवण्याची, जोडा, समाविष्ट, वाढ, मोठा, वाढ, वाढ
नाक: पक्षाचीचोच
अनुकूल: उपयुक्त, अनुकूल, एकरुप, प्रेमळ, प्रामाणिक, घटक, मैत्री, प्रकारची
काल: उद्या, आजकाल
hesternalताण: 
अपयशी: अपयश, अयशस्वी, पराभव, अक्षम, घोटाळा, निराशा
सुरू: पुढे, सतत, सक्तीचे, सुरू, सतत, टिकूनराहाणे, वाटप, धरा, पुढे, कनेक्ट, सुरू, सुरू
दूर: सुटका, मागे, दूर, लोप, पुसणे, पुसून, हटवू, रद्द, वजा, काढणे, खेचणे, घालवूनदेणे, लक्षवेधूनघेणे
बोलता: वाहून, हमाल
आंधळा: 
उड्डाणकरणारेहवाईपरिवहन: उड्डाणकरणारेहवाईपरिवहन, उडी, उड्डाण, विमानचालन
स्तुती: वाहवा, प्रशंसा, प्रतिष्ठा, गुणवत्ता, अभिनंदन, अभिनंदन
मिशन: 
यज्ञ: बळी, बळी, जखमीझालेलीव्यक्ती, टोल
व्यायाम: कामबाहेर, नेमणूक, सराव, सराव, खेळ, फिटनेस, रंगीततालीम, धान्यपेरण्याचेयंत्र, चळवळ, गती, मोहीम, मैदानीखेळकिंवाखेळाडूविषयक
विवेक: सर्वनाम, शुद्धी
सिद्धांत: तत्त्व, सिद्धांत, प्रमेय, सैद्धांतिक
मंत्री: 
द्वेष: ओंगळ, तिरस्कार, द्वेष, तिरस्कार, गाठ, द्वेष, पुन्हापाठविले, अत्यंतवीटआलेला, तीव्रतिटकारा
लेक: केवळ
केंद्र: केंद्रीय, केंद्र, स्टेशन, मुख्यालय, मध्यम
कमजोर: बेशुद्ध, निराशा, जिवावरउदार, कमकुवत, फिकटगुलाबी
कारणाचालिंग: 
थोडक्यात: थोडक्यात, राज्यप्राणी, लहान, लवकरच, कार्ड, संक्षिप्त, आढावा, आर्थिक
उपासना: विधी
वस्तू: उत्पादन, , आयटम, व्यापारी, कमोडिटी, सामग्री, वाहतुक, मॉल, वस्तू
त्वचा: लेदर, शोषण, झाडाचीसाल, शेल, फळाचीसाल, फर, कळकळ
छप्पर: टेरेस, कमालमर्यादा, पांघरूण, कव्हरेज
मुकुट: 
किल्लेवजावाडा: पिंजरा, लॉक, आडनाव
सिंहासन: 
संलग्न: व्यस्त, सशर्त, संलग्न, जोडलेले, अवलंबून, सहकारी, जोडी
मैलाचे: प्रवृत्ती, उतार, जनावराचे, ग्रेडियंट, अर्जदाराच्याकुंटुबाचीसंपूर्णमाहिती
तुरुंगात: तुरुंगात
नख: तसेच, आरामदायक, योग्य, सहजतेने, कसून, जोरदार, संपूर्णपणे, पूर्णपणे, पूर्णपणे, प्रामाणिकपणाने, पूर्णपणे, पूर्णपणे, पूर्णपणे, पूर्णतः, नक्की, तंतोतंत, अचूकपणे
कप: घोकूनघोकून
सदस्य: अवयव, सदस्यत्व, फांदी, आतल्या
नागरी: घरगुती, नागरिक, नागरी, मुलकीअधिकारी
सर्वत्र: संपूर्ण, कुठेतरी
पालन: अंमलबजावणी, कार्यान्वित, अंमलबजावणी, संबंधित, सोबत, बैठक, पालन, सामग्री, पूर्णकरणे, पालन, विषय, पालन
जेव्हा: तर, तरी, मात्र, जरी, असेअसलेतरी, तर, तथापि
खंड: जास्त, प्रमाणात, रक्कम, तुलनेने, संख्यात्मक, ब्लॉक, विभाग, मोठ्याप्रमाणात, घेर, कव्हरेज, आकार, खंड, खंड
सानुकूल: क्लायंट, पर्यायी, पोशाख, सराव, सवय, वापरलेते
धनुष्य: कमान, , कांदा, वक्र
मांस: मांस, गोमांस
vegetalलिंग: 
दुर्मिळ: क्वचितच, महत्प्रयासाने, क्वचितच
चुलतभाऊअथवाबहीण: नातेवाईक
पूल: ग्रेड, डेक, पाय, पूल
संरक्षण: संरक्षण, संवर्धन, गार्ड, ढाल, एकहीरननाही, रक्षण, देखरेख, जतन, सुरक्षित, संरक्षण, संरक्षण
मीठ: अतिशयोक्तीपूर्ण, अतिशयोक्ती, खारट, खलाशी
निष्पाप: स्वच्छ
राणी: 
नृत्य: ढोल, नृत्य, उडी, वगळू
हॉटेल: निवासव्यवस्था
भरा: सामग्री, सामग्री
कैदी: शिक्षाझालेलागुन्हेगार
पायऱ्या: पायर्या, जिना, शिडी, ड्रॉवर
समलिंगी: अशीव्यक्ती
वाळू: 
हिंसक: हिंसा, भयंकर, अनावर, विस्मयकारक, तीव्र, मजबूत, प्रखर, जोमदार, गळा, गहन
सप्टेंबर: 
नाश: नाश, कायदेशीरपणे, नुकसान, पाणीघालणे, आपत्ती, wreckage, हो, नाशकरणे
गाई-गुरे: गाय
उपकरणे: उपकरणे, डिव्हाइस, , उपकरणे,कपडे,अन्यसाधनेयांचासंच, गियर, साहित्य, हाताळताना, सुविधा, वस्तू
ह्याला: समज, जाणीव, आकलन, ओळखले, ओळख, जागरूकता
कुठेही: कुठेतरी, जेथेजेथे, कोठेहीनाही, इतरत्र
स्वयंपाकघर: स्वयंपाक, कुकर
विक्री: विक्री, उपांत्य, विक्रेता, विश्वासघातकरणे
गती: गती, वेगवान, गती, एवढी, प्रेरकशक्ती, गती, गती
संगणक: संगणकीय
अनंत: कधी, कायमचे, असीम, कायम
लायब्ररी: , पुस्तकेठेवण्याचेकपाट
गोंधळ: गोंधळ, अनागोंदी, गडबड, गोंधळातटाकणारे, गोंधळलेला, गोंधळ
लेख: निबंध, आयटम, विभाग, खंड, व्यास, अभियंता
कूक: , स्वयंपाक, बेककरावे, उकळणे
बँड: कमरपट्टा, रिबन, टेप, संघ, गट, पट्टी, प्रकार, झोन, एकधागा, घड, क्लस्टर, लेन
वाळवंट: वाळवंटात, निर्जन
चुंबन: 
बर्फ: बर्फमलई, टेप, बर्फ
एकूणधावसंख्या:: रबर, गोल, बंदूकीचीगोळी, शक्ती, अर्भक, गोळी, शून्यता, एकूणधावसंख्या:
काठी: शेअर, ऊस, पालन, लाकूड, इमारतीलाकूड, फलंदाजी, सूचना, कर्मचारी, काठी
वाद: तर्कशास्त्र, हलवा, वादंग, चर्चा, वादविवाद, वाद, मुलूख, ठाममत, प्रश्न, प्रश्न
देखणे: तपासणी, परीक्षण, अन्वेषण, चौकशी, निरीक्षण
आशीर्वादमूड: 
उल्लेखनीय: थकबाकी, जबरदस्तआकर्षक, स्ट्राइक, सिंहाचा, लक्षणीय, खारा, सहजलक्षात, प्रभावी, आश्चर्य, थक्ककरणारा, उल्लेखनीय
अपराधी: दोषी, देणे, पापकरायलाप्रवृत्तकरतो, फरारी, शिक्षाझालेलागुन्हेगार, दोष
तोफा: रायफल, शस्त्र
पोलिसांनी: अंमलबजावणी, देखरेख
लपवा: तयारकरणे, सोंग
मोहीम: मोहीम, ड्राइव्ह, ट्रिप, प्रवास, जलप्रवास, दौरा, यालढ्यामुळे
ढग: cyberspace
कचरा: निरुपयोगी, अनावश्यक, नकार, नकार, नकार, कचरा, कचरा, कचरा
फेब्रुवारी: 
आजार: आजार, आजारपण, हृदय, समाधानकारक, समाधानकारक, सिंड्रोम
पुढाकारकेस: 
सार्वत्रिक: 
इस्टेट: तसेच, वृक्षारोपण, मालमत्ता, जमीन, मालमत्ता, मालकी, दैव, संपत्ती
नम्र: पराभव, विनम्र
विलंब: पुढेढकलू, उशीरा
विलंबअत्यावश्यक: 
अहवालसाक्षीसंबधी: 
दुर्दैवी: दुर्दैवाने, दुर्दैवी, योगायोग, दु:खी, दीन, अपुरी, असंबद्ध, अयोग्य
मध्यरात्री: उत्तर
नायक: योद्धा, विजेता
हाताचेबोट: पायाचेबोट, अंक
प्रेस: मीडिया, मासिक, जर्नल, छपाई, प्रकार, सुत्र, पुश
प्रतिफळभरूनपावले: बक्षीस, भेट, पुरस्कार, बोनस, भरपाई, भरपाई
दोष: चूक, दोष, दोष, कर्ज, दोषी, नकटे, चालु, दायित्व, जबाबदारी, आरोप, आरोप, दोष, दोषदेणे
दु:खे: दु:ख, दु:ख, दु:ख, दीन, कंटाळवाणेपणा, दु:ख, दु:ख, हीसेवाविनामुल्य
कपाळ: 
जाहिरात: जाहिरात, जाहिरात, जाहिरात, जाहिरात, घोषणा, प्रसिद्धी, सूचना, घोषणा, ते, साठी, विधान, ठाममत, जाहिरात, जाहिरात
देवदूत: जमीनमालक, काल्पनिककथा, कठीण, अवघड, दूत
ऑफदफेम: गौरव, प्रतिष्ठा, अफवा, अफवा, जाहिरात, प्रसिद्धी, प्रतिष्ठा
असामान्यसंख्या: 
पहाट: संधिप्रकाश
क्षमा: निमित्त, क्षमा, सहन, माफ, आराम, घालविणे, क्षमा
मेंढरे: कोकरू, शेळी, रक्कम, सकारात्मक
ठराव: निराकरण, उपाय, निर्णय, निष्कर्ष, विश्लेषण, यंत्रातीलबिघाड, ब्रेकखाली, निर्धार, किडणे
संयम: मनोधैर्य, सहनशीलता, रुग्ण, अधीर, सहनशील, सहिष्णुता, संयम
referential: संदर्भ, पहा, निर्देशीत, दिशादाखवणारा
धान्य: गहू, शिंग, धान्य
की: बॉण्ड, बटण, स्विच, मुख्य, महत्वाच्या, प्रमुख, संवेदनशील, प्रमुख, कोनाडा, मुख्यप्रवाहात, सूचना, की
बहुतांश: अनेक, सर्वात
अज्ञान: अज्ञान, हास्यास्पद, मूर्ख, अज्ञान, थंब
अशक्तपणा: असमर्थता
नफा: फायदा, लाभ, फायदा, व्यवहार्य, विजय, लाभार्थी
घंटा: गजर, घड्याळ, तास
वातावरण: पर्यावरण, आकाश, विमानचालन, अवकाशीय, हवामान, आसपासच्या
माणुसकीच्या: मानवी
डिस्क: डिस्क, स्लाइस, काउंटर, सिलेंडर, प्लेट, रेकॉर्ड, ट्रे
एकाकी: फक्त, एकाकीपण, स्वतंत्रपणे, एकच, केवळ, शांत, निर्जन
कलाकार: परफॉर्मर, चित्रकार, मनोरंजन
मोहिनी: करिष्माई, आकर्षण, जादू, शब्दलेखन, सौंदर्याचा
गुलामगिरी: गुलाम, बॉण्ड
राज्यपाल: पुराणमतवादी, अधिकारी
शाखा: 
स्वभाव: व्यवस्था, कॉन्फिगरेशन, प्रवृत्ती, कल, तरतूद, मांडणी, मूड, वेळापत्रक, वेळापत्रक, निवासस्थानी, गंतव्य
नशीब: दैव, प्राक्तन, नशीबवान, आनंद, संधी, भाग्यवान
साधितकेलेली: करा, प्राप्त, साध्य, प्राप्त, साध्य, परतमिळवणे
अनुमानाचामूड: inferentialमूड, निगमनमूड
समुदाय: समाज, श्रेणी, लोक
तेल: चरबी, इंधन, जीवाश्म, सार, थर्मल, लोणी
पाईप: ट्यूब, टॅप, तोटी, गांड
प्रिंट: संस्करण, दबाव, छपाई, अक्ष, साचा, ठसा
अरे: कोण, अरे
प्रवचनसंदर्भ: 
संबोधनविभक्तीकेस: 
केबिन: कॉटेज, तंबू, आजरात्रीचामुक्काम, खोली, सेल, कप्पा
चिंताग्रस्त: ताण, गोंधळलेला, अडथळा, नाराज, लज्जास्पद, त्रासदायक, त्रासदेणे, अस्वस्थकरणारी, मज्जासंस्थेसंबंधीचा, काळजी, मज्जातंतू, मजबूत, शक्तिशाली, गहन
फरक: अनुक्रमे, वेगळ्या, चढ, विविधता, भिन्न, वेगळे, अंतर, फरक, फरक, फरक, फरक, फरक
ओझे: आकलन, लोड
रेशीम: आकलन, पकड
अपमान: असेसमजू, द्वेष, तिरस्कार, आत्यंतिकतिटकारा, तीव्रतिटकारा, नकटे, अपमान, बलात्कार, निष्काळजीपणा
नरक: 
वेगळे: स्वतंत्र, बाजूला, आमच्या, भिन्न, भिन्न, स्वतंत्रपणे, अलिप्त, अलग, अलग, ostracized, सिमित, वेगळे, वेगळे, अलगठेवणे, वियोग
मिश्र: मिश्रण, संयोजन, संयुक्त, मिक्स, संयुक्त, फ्यूजन
लाकडी: लाकूड, इमारतीलाकूड
उपचार: उपचार, उपचार, बरा, प्रक्रिया, विचार, थेरपिस्ट, उपाय, करार, बरे, वागणे, मदत, हनुवटी, जबडा
चेतावणी: खबरदारी, चेतावणी, इशारा, स्मारक, सूचना
सूचनामूड: 
महत्वाकांक्षा: निराश, निराशा, लालसा, परावृत्त, महत्वाकांक्षी
उत्पन्न: कार्यक्षमता, पुनरुत्पादित, उत्पन्न
कसातरी: काहीसे, काहीतरी
वकील: सल्लागार, इशारा, सल्ला, सल्ला, सल्ला, टीप, वकील, वकील, वकील
घटना: सनद, घटनात्मक, घटना, घटना
इन्स्ट्रुमेंट: साधन, भांडे, अस्तित्व, अवयव, कंटेनर, उपयुक्तता, डिव्हाइस
स्थिर: स्थिर, स्थिर, नियमित, नियमितपणे, निश्चित, सतत, सतत, सतत, शाश्वत, मानक, स्थिर, निराकरण, सुसंगत, कायम, थांबलेला, आरामशीर
घटक: घटक, घटक, घटक, घटक, घटक, सार, घटक, घटक, घटक
सततपैलू: 
ऑनलाइन: 
समुद्राचीभरतीओहोटी: लाट, स्नॅप
कॉलेज: विद्याशाखा, अकादमी, कॅम्पस, विद्यापीठ
शेपूट: रांग, माग
पिढी: वंशज
मांजर: 
थेटसाक्षीसंबधी: 
भन्नाट: दुर्लक्ष, सोडून, निर्जन, राजीनामा, त्याग, विरघळली, रद्द
अकरा: 
अंतःप्रेरणा: उत्स्फूर्त
वंशातील: ट्रंक, स्टेम, लोड, अभाव, उणीव, कमतरता, तूट, कमतरता
धास्तावलेलामूड: 
निवारा: रिसॉर्ट, निवासस्थानी, सेटलमेंट, आवास, निवासी, संरक्षण, वसतीगृह, सहारा, हार्बर
उद्धट: उद्धटपणे, उग्र, दुष्ट, असह्य
पकडलेला: सायकल, स्वार
व्यवसाय: व्यावसायिक, कारकीर्द, व्यवसाय, व्यावसायिक, व्यावसायिक, व्यवसाय
दिवा: मेणबत्ती
कॉफी: कॅफे, पुरेसा, सूचविले, पुरेसा
परिचारिका: बहीण
देतो: हमी, वॉरंट, प्रतिज्ञा, हमी, विमाउतरवणे, याचीखात्री, खात्रीकरूनघेणे, पुष्टी, प्रदान, पूर्ण, आपलीखात्रीआहेकी, पटवणे, जाहीरकरणे, सुरक्षित, पॅलॅडियम
शूज: बूट, सॅंडल
सोडूनइतरसर्वखलाशी: कर्मचारी, कळप, संघ, घड, कर्मचारी
आवारातील: कोड, पान, प्रियाराधन
अस्पष्ट: असमंजसपणा, अस्पष्ट, संदिग्ध, अस्पष्ट, अनाकलनीय, अनिश्चित, अनिश्चित, लाट, रिक्त, unintelligible
अपार्टमेंट: फ्लॅट, मंडळ, कप्पा, संच, गाडी
क्रियाकलाप: व्यवहार, कार्य, ऑपरेशन
शनिवार: शनिवारवरविवार
धारक: 
सुर्यप्रकाश: सौर, , प्रकाशणे, प्रकाश
विधवा: 
संवाद: संपर्क, पत्रव्यवहार, बोलका, संवाद, संवाद, संवादसाधू, संबंध, संबंधित, नाते, सहसंबंध, समर्पकता, सूचना, घोषणा, व्यवहार, फवारणी, व्यावसायिक, संवाद, संवाद, संवाद
प्रतिबिंब: योजना, प्रतिक्षिप्तक्रिया, कल्पना
संघटना: मेदयुक्त, संघटना, आयोजित, साहित्य, महामंडळ, उपयुक्तता, एजन्सी, अस्तित्व, प्रणाली, रचना, पोत, मांडणी, संस्था, संस्था, असोसिएशन, टणक, एंटरप्राइज, विमान, आयोजित
तारा: 
अतिथी: परदेशी, अभ्यागत, उपरा, परदेशी, नवोदित, क्लायंट, ग्राहक, यजमान
बार: फक्त, गुत्ता, लोड, , वाहतुक, कॅफे, रुप्यासारखापांढरामऊधातू, पट्टी, मलमपट्टी, कमरपट्टा
बाटली: किलकिले, आजारपण
आशीर्वाद: आशीर्वाद, सलाम
नीटढवळूनघ्यावे,: हाताळू, मिक्स, बोलावणे, दंगा, जागृत
भांडण: फरक, वाद, लढा, दावा, भांडणे, भांडण
आतील: आत, आत, आतील, अंतर्गत, स्थानिक, घरगुती, घरातील, वेडा, आतल्या, मुख्य, प्रमुख
प्रतिकार: विरोधी, विरोध, निषेध, प्रतिरोधक, विरोधी, पुन्हापाठविले, आक्षेप
पोकळ: साधा, फक्त, रिक्त, केबल, भोक
प्रांत: प्रांतीय, जिल्हा, कंट्री, चरबी
संस्कृती: संस्कृती
फाशीदेणे: देखरेख
धक्का: मोठाधक्काबसलाआहे, शरीरालाझालेलीजखम, धक्कादायक, फासा, परिणाम, तडाखादेऊनमूर्च्छितकरणे
अपवाद: आंशिक, भेदभाव, समज, सूट, संघर्ष, थकबाकी, माफ, कपात
मानसिकताण: ताण, ताण, लोड, थकवा, प्रयत्न, तीव्रता, आलिंगन, वांशिक, पारंपारीक
ड्रायव्हिंग: ड्राइव्ह, ड्राइव्हर, मार्गदर्शन, सायकल
शपथ: शपथविधी, प्रतिज्ञा
खजिना: रत्नजडित
बी: शुक्राणूंची, कोळशाचेगोळे, कण, श्री
टॉवर: 
आवडत्या: आवडत्या
अलीकडे: अलीकडील, जोमाने, नवीन, आजकाल, त्यानंतर
जागृत: लाजाळू, मानसिकधैर्य, जागे, इशारा, जागृत
फर्निचर: 
दोरी: दोरखंड, स्ट्रिंग, कातडयाचा, बांधून
साहस: उपक्रम, , जुगार
राजपद: राज्य
मेजवानी: पक्ष, उत्सव, मेजवानी, सुट्टी, डिनर
वार्षिक: वर्ष, दरवर्षी
प्रमाणात: फ्रेम, फ्रेमवर्क, गेज, प्रमाण, शिडी, पायर्या, जिना, आकार, निकष, आकारमान, पातळी, प्रमाणात, प्रमाणात
यामुळे: परिणाम, म्हणून
पाया: बेस, आधार, आधारित, मूलभूत, प्राथमिक, प्राथमिक, कोर, मूलभूत, उथळ, पदवी, कारणास्तव, प्लॅटफॉर्म, पाया, मूलतः, चापाया
समारंभ: विधी, कार्य, उत्सव, मैफिल, सुत्र, शुद्धी
शिकार: शोधाशोध, बळी, बळी, पाठलाग, शूटिंग
उदारमतवादी: उदार, मुक्तपणे
मुख्यत्वे: सेवनाने, लक्षणीय, सर्वात, प्रामुख्याने, मुख्यतः, मोठ्यामानाने, मोठ्याप्रमाणावर, प्रामुख्याने, मूलतः, मूलत:, मुळात, वाढत्या
राजकुमारी: मुलगी, वधू
वेदी: पवित्रनिवास
वेब: नेटवर्क, निव्वळ, ग्रीड, मेदयुक्त, कॅनव्हास, विणकाम
जांभळा: किरमिजी
गोळा: गोळा, साठवणे, आटणे, डायल, गोळा
निवडणूक: निवड, निवडलेल्यालोकांना, माग, मतदान, खरपूसमार, निवड, पसंतीचा
प्यालेले: मद्यपी, दारूचीनशा
ओतणे: कोसळणे, शेड, गळती, पाडाव
लिफ्ट: लिफ्ट, चढवणे, उचलणे, वाढवण्याची, वाढ
मुख-मुद्रासंयोजन: चिन्ह, सिग्नल, चिन्ह, प्रतिकात्मक, वृत्ती, पवित्रा, इशारा, संकेत
व्यवस्थापित: व्यवस्थापन, देखरेख, हाताळू, प्रशासन, राज्य, जहाज, नियंत्रण, येथपासूनचालवतात, असे, व्यवस्था, आयोजित, संरचीत, सुरू, देखरेख
विनिमय: स्वॅप, परस्परांचा, वस्तूंचीदेवाणघेवाण, बदलण्याचीशक्यता, commutative, चलन, आर्थिक, पर्यायी, प्रत्यारोपणाच्या
निश्चितलेख: 
सम्राट: राजे
समाप्त: पूर्ण, शेवट, शेवटी, मलम, प्रती, सजावट, निष्कर्ष
कुरुप: ओंगळ, तिरस्कार, आनंदी, आनंददायक, गमतीशीर
खरा: खरे, रिअल, प्रत्यक्ष, आभासी, अचूक, मूळ, मुळ, नैसर्गिक, देशी, काही, विश्वास, स्तंभ, प्रामाणिक
इंच: सीमाशुल्क, थंब
दाढी: हनुवटी
फाडणे: तरीपकडूनखायलाबघतील, धूप
विरोध: विरोधी, विरोधी, फरक, निषेध, उलट, विरोध, व्यत्यय, विरोध, नकार, नकार, विरोध, ऑब्जेक्ट, सहन, विरोध, विरोध
व्यापारी: विक्रेता, व्यावसायीकव्यक्ती, व्यापारी
स्वातंत्र्य: स्वतंत्र, स्वातंत्र्य, मुक्तपणे, स्वातंत्र्य, स्वायत्तता, मुक्ती
वास: सुगंधी, चव, चव
अठरा: 
ऐतिहासिक: ऐतिहासिकदृष्ट्या, इतिहास, इतिहासकार, ऐतिहासिक
एकूण: एकूण, एकूण, गलिच्छ, कच्चा, क्रूड, तरतरी, मॅक्रो, उत्सुक, तीव्र, प्रखर, एकूण, एकूण
मूळ: स्टेम, जोमाने, मार्ग, मूळ, मूळ
चिखल: माती, चिखल, माती, घाण, फूल
साधेपणा: सोपे, नम्रता
पडदा: पडदा, जहाज, समुद्रपर्यटन, स्क्रीन, पडदा
थिएटर: थिएटर
तुलना: तुलनाकरा, तुलनात्मक, सहसंबंध, प्रमाण, सत्तायांमधीलशत्रुत्वाची, तुलना
रचना: घटक, रचना, निर्मिती, बांधकाम, घडवणे, बांधकाम, आयोजित, कॉन्फिगरेशन, संरचीत
प्रतिस्पर्धी: विरोधक, dissident, स्पर्धा, स्पर्धात्मक, स्पर्धाकरणे, स्पर्धक, काउंटर, परस्परविरोधी, विरोधी
लक्षात: साध्य, ओळखले, ओळख, ओळख, निदान, नकळत, कार्यान्वित, वाटत, आकलन, समजून, आकलन, पूर्ण, लक्षात
शिल्लक: समतोल, तितकेच, समता, आडव्या, प्रमाणात, समता, बजेट
प्रशिक्षक: ट्रेनर, व्यवसायी, शिक्षक, गुरू
विनोद: विनोद, विनोदी, मूड, विनोदी, विनोद
कादंबरी: कल्पनारम्य, नवीन, नवीन
बदला: द्वेष
संसाधने: मालमत्ता, स्रोत, संसाधन, अर्थ, पुरवठा
अत्यंतदक्ष: मत्सर, मत्सर
चाक: दुचाकी, मंडळ, सायकल
जाळून: होम
फ्लॅश: आकाशातचमकणारीवीज, प्रकाश, प्रकाशणे, विजेरी
सूचित: सूचना, शिफारस, मांडणे, शिफारस, प्रस्ताव, नामनिर्देशन, ध्वनितकरणे, अभिप्राय, सूचित, विधान
imprecatoryमूड: 
असहाय्य: 
गट: गट, डेक
क्लब: फलंदाजी
पूर: चिरडूनटाकणे
आनंद: आनंद, आनंद, आनंद, आनंद, आनंद, आनंद, आनंद, आनंद, आनंद
दुर्लक्ष: औदासीन्य, निष्काळजी, दुर्लक्ष, दुर्लक्ष, दुर्लक्ष
क्षितीज: 
assumptiveमूड: काल्पनिकमूड
जास्त: उत्थान, लंब, जास्त
सुसंवाद: तडजोड, ट्यून
बालपण: 
गुडघा: शर्यतीच्या
म्युच्युअल: प्रत्येकइतर, परस्परांचा, सामान्य, संयुक्त, संवाद, परस्पर
सॉफ्टवेअर: अर्ज, रिपोर्टमध्ये
इजा: दुखापत, हानी, नुकसान, इजा, जखमेच्या, शरीरालाझालेलीजखम, जखमी, उल्लंघन
पावती: प्राप्त, प्रवेशद्वार, रिसेप्शन, प्रवेश, स्वीकृती, व्हाउचर
शिस्त: विषय
स्लिप: निसरडा, स्लाइड, संथपणे, बोलण्यातीलअगरवागण्यातीलप्रमाद
क्रांती: क्रांतिकारक, निर्णायक, रोटेशन, बंड, बंड
शेतकरी: शेतकरी
स्ट्रोक: मोठाधक्काबसलाआहे, निर्णायक, गर्दी, चढणे
विशेषाधिकार: वंचित, प्राधान्य, कोटा, मताधिकार, ऑफर, सवलत
विद्यार्थी: विद्यार्थी, विद्वान, पदवी, शैक्षणिक
गुहा: 
परंपरा: पारंपारिक, परंपरेने, सीमाशुल्क, सरेंडर
शोकांतिका: रोगाचीसाथ, दु:ख, विरोधाभास
खानावळ: गुत्ता
कुमारी: दासी
निरोप: गुडबाय, बाय, बायबाय
टीका: टीका, समालोचन, पुनरावलोकन
कापूस: लोकर
रुग्णालयात: सहारा
भाडे: भाडे, भाड्याने, कर, खंडणी, लीज, कामावर, व्यस्त, भाड्याने, सनद
गॅस: 
अपरिहार्य: नक्कीच
प्राणघातक: महत्वाच्या
पाने: पत्रक, गवताचेपाते
प्रकाशन: प्रकाशित, प्रकाशन, छपाई, जाहीर, प्रसारण, प्रकाशन, उत्पादन, प्रसार, घोषणा
अनुवाद: अनुवाद, अनुवाद, अर्थलावणे, रोगाचीसाथ, हस्तांतरण, आवृत्ती
बीच: एकधागा, कोस्ट
दफन: दफन, दफनभूमी, दफन
पीठ: पावडर, dough, अचूक, अचूक, तंतोतंत, जेवण
गर्जना: नाट्यमय, ओरडणे, आवाज
रोमँटिक: कंबर, हिप
झोपडी: कॉटेज, आजरात्रीचामुक्काम, शेड
mimetic: 
डॉलर: 
सोळा: साठ
विधानसभा: भेट, परिषद, काँग्रेस, कॉन्फिगरेशन, मेळावा
कॉलनी: 
विंग: प्रभाग, संच, फांदी, कल्ला, उड्डाण, विमानचालन
सिंह: 
चतुर: अवघड, युक्ती, कुशल, हुशार, चतुर
नाटक: ढोंग, नाट्यमय
धुके: धुके
हायपरटेक्स्ट: हायपरलिंक
औषध: औषध, उपाय, फवारणी, नियम
चौदा: न, विशेष, न
आम्ल: आंबट, acidic, डोंगर, डोंगरावर
म्हणजे: कोणत्याही, दुसऱ्याशब्दातसांगायचेम्हणजे
वापरकर्ता: लाभार्थी, ग्राहक
बिशप: 
संत्रा: 
बाथ: स्नानगृह, शॉवर, बाथटब
साधित: कंपाऊंड, ध्वनिमुद्रण, साध्य
प्राचीन: लवकर, प्रारंभिक, प्राचीन
टोपली: बिन, पिशवी, बास्केटबॉल
सचिव: संपादक
तारण: सुरक्षा, मुक्ती, हाय, बचाव, पुनर्प्राप्ती, परतमिळवणे
आज: 
hodiernalताण: 
हेतू: हेतू, उद्देश, स्वारस्य, उत्सुक, हेतू, नाराज, अर्पण, जीवनसमर्पण, निर्धार
स्टीम: 
विष: विषारी, विषारी, तणनाशक, प्वॉसॉ
प्रतिभा: तेज, प्रतिभावान, पात्रता, क्षमता, रिपोर्टमध्ये
प्रभावी: वैध, प्रभावीपणे, कार्यक्षम, परिणामकारकता, प्रभावी, उपयुक्त, सक्रिय, उपलब्ध, प्रभावी
वॉश: वॉशिंग
कबुली: स्वीकारकरता, मार्ग, ओळख, प्रवेश, दावा
मूर्खपणा: कचरा, अवास्तव, असंबद्ध
कोळसा: कार्बन
उपाध्यक्ष: associative, बाय, प्रतिनिधी
तात्पुरता: मध्यांतर, कालावधी, ऐहिक, , अपघाती, , तर, समकालीन
delimitativeपैलू: 
हाड: पाय, फ्रॅक्चर, इमारत
सोमवार: 
मंगळवारी: तिसऱ्या
बुधवारी: चौथ्या
फेडरल: फेडरेशन, केंद्रीय
इष्ट: आकर्षक, अनुकूल
प्रतिनिधी: प्रतिनिधित्व, वतीने, प्रतिनिधी, वकील, प्रतिनिधी, प्रवक्ते
तागाचे: मुख्यकपड्याखालीघालायचेआतीलकपडे
विहिर: पाण्यातबुडूनमरणे, नदीचेखोरे, जस्त, समक्रमित
पुतण्या: भाची, नातू, पणती
वेढा: भोवती, आसन
पोट: पोट, ओटीपोटात, मॅट्रिक्स
कळस: पीक, अव्वल, टीप, अधिवेशन, रिज
विशेषव्यक्ती: 
पकडणे: हाताळताना, बांधणे, अडकवूनठेवणे, आरक्षण, तरीपकडूनखायलाबघतील, व्यापलेल्या, व्यापू, कायदेशीरपणेजप्त, बळकावणे, आकलन, आकलन, करा, ठासूनसांगत, ताब्यात
कुंपण: हेज
पुतळा: शिल्पकला
लक्झरी: 
तोफखानाविभाग: दाढीकरणे
अटक: झेल, कॅप्चर, अडकवूनठेवणे, घट्ट, थांबवणे, गर्भधारणा
पॅक: पार्सल, पॅकेट, पॅकेज, लपेटणे, मोळी, बंद, बंद, ओघ, पॅकेजिंग
आसपासच्या: सुमारे, शेजार, शेजारी, शेजारी, शेजार, गौण, आसपासच्या, समीप, व्यापक, पर्यावरण, पर्यावरणविषयक
काटेकोरपणे: कठोर, सुसंगत, अचूकपणे, घट्ट, तीव्र, नक्कीच, पूर्णपणे, निश्चितपणे, घट्ट, असह्य, आपलीखात्रीआहेकी, नक्की, तंतोतंत
उर्वरित: उर्वरित, उर्वरित, निघूनगेलीआहे, गोळा
हरण: 
बुश: 
रेल्वेमार्ग: रेल्वे, रेल्वे
स्त्राव: मुक्ती, अतिथीमध्येसोडणे, प्रकाशन, पाणीसोडणे, घालवूनदेणे, सोडणे
वारस: वतन, प्रदेशताब्यात
ओक: 
अप्रिय: आनंद, सुखकारक, अस्वस्थ, राग, अस्वस्थकरणारी, ओंगळ, अस्वस्थ
पियानो: 
पटवून: पटवणे, साजराकरणे, स्मारक
अदृश्य: अनाकलनीय, अदृश्य
तसेचज्ञात: प्रसिद्ध, कुविख्यात, प्रमुख
क्रूरकृत्य: 
मोह: परीक्षा
telicपैलू: 
आंतरराष्ट्रीय: जागतिक, बहुराष्ट्रीय
हस्तक्षेप: हस्तक्षेप, हस्तक्षेप, हस्तक्षेप, अडथळा, त्रास, त्रासदायक, व्यत्यय, त्रासदेणे, संतप्त, त्रासदेणे, फासा, त्रासदायक, द्या, दंगल
सूक्ष्म: सूक्ष्म, युक्ती, नाव, नाजूक, गुळगुळीत, बारीक, दंड, पातळ, सुज्ञ, सभ्य
तत्वज्ञानी: तात्विक
मोहक: फॅशनेबल, नाजूक, विस्मयकारक, उत्कृष्ट, उल्लेखनीय, तेजस्वी, अविश्वसनीय, विलक्षण, जोरदार, अभूतपूर्व
कल्याण: दानशूरपणा, समृद्धी, तरतूद
मासेमारी: 
चोरी: चोरी, लुटणे, दरोडा, चोरणे, वाड्ःमयचोरी, चोरी
ओठ: पक्षाचीचोच, तोंडी, नदीचाकाठ
निवृत्त: निवृत्ती, निवृत्त, सेवानिवृत्त, माघार, उर्वरित, श्रम,विश्राम,, मागे, पेन्शन
अर्थव्यवस्था: आर्थिक, आर्थिक, अर्थशास्त्र, मोठाकोनाडा, बचत, घरगुती, अर्थशास्त्रज्ञ
ताणून: सरळ, वाढवणे, मुलूख, विशेषगुण, तुकडा, रस्ता, तुकडा, हिस्सा, विभाग, प्रमाण
समांतर: हळूच, सुसंगत, सहकारी, लावणे, आडव्या
atelicपैलू: 
प्रतिबंधकमूड: प्रतिबंधकमूड
टाय: गरुड
अंडी: 
कृत्रिम: कृत्रिम
प्रेरणा: हेतू, प्रेरणा, प्रेरणा, प्रेरणा, यावरविचारमंथन, उत्तेजन, प्रतिष्ठापना, उत्तेजितहोणे, प्रेरणा, प्रेरणा
दरम्यानच्याकाळात: एकाचवेळी
संकट: , कमीहोणे, न्याय, न्याय, आणीबाणी
विनयशील: शिष्टाचार, सुशिक्षित, नैतिक
शिक्का: मुद्रांक, छपाई, ठसा
लंच: नाश्ता, डिनर, क्षेत्र, जेवण, जेवण
नजुमानता: असूनही, तरी, जरी
लँडस्केप: परिस्थिती, आसपासच्या, पर्यावरण, संदर्भ, पर्यावरणविषयक, शेतात, नैसर्गिक, दृश्य, दृष्टी, आशा, दृष्टीकोन
कलात्मक: कला, कलाकृती
युती: केंद्रीय, लीग, युती, एकत्र, भागीदारी, ग्रह
जास्तीतजास्त: जास्तीतजास्त, अत्यंत, अंतिम, सर्वात, पेक्षा, प्रती, पेक्षाजास्त
चमत्कार: आश्चर्य
तांबे: कांस्य
पवित्रता: शुद्धता, अचूकता, सुस्पष्टता
प्रजासत्ताक: लोकशाही
टेलिफोन: फोन, मोबाइल
चाबूक: कातडयाचा
शर्ट: टीशर्ट
परिचय: परिचय, सादरीकरण, स्थापन, आरंभ, प्रस्तुत, तरतूद, शिफारस, संदर्भ, इंजेक्ट, वितरीत, एकूणधावसंख्या:, शब्दचित्ररेखाटणे, लांब, संपर्क, समाविष्ट
सोफा: आरामखुर्ची
स्वीप: पुसणे, स्कॅन
चोर: 
चॅनेल: काढूनटाकावे
सुधारणा: सुधारणा, दुरुस्ती, उत्क्रांती, सुधारणा, दुरुस्ती, शुद्ध, पुनरावृत्ती, सुधारणा
तहान: तहान
धमकी: धमकी, धमकी, भीतीदायक
पाम: 
प्रोत्साहन: उत्तेजन, प्रेरणा, ड्राइव्ह, पुश, जाहिरात, प्रोत्साहन, उद्युक्तकरणे, आनंद
स्पीकर: प्रवक्ते, व्याख्याता
उंबरठा: प्रवेशद्वार, प्रवेश
लावणे: लॉबी, उद्युक्तकरणे, कारण, चेतावणी, जागृत, ठरू, परीक्षा, बोलावणे, भिजवून, साध्य, प्रतिष्ठापना, लावणे
व्यवस्थित: नीटनेटका, स्वच्छ, चांगला, विस्मयकारक, फॅन्सी, सुंदर, छान
सत्र: भेट, परिषद, सत्र
यातना: दु:ख, दु:ख, हिंसा, छळकरण्याचेएकसाधन, सल्लागार
ओलसर: घाण, ओले, आर्द्र
प्रवासी: अभ्यागत, प्रवासी, पर्यटन, प्रवासी, जलप्रवास, प्रवास
मिल: कारखाना, उत्पादन, वनस्पती, तोटी, दारूभट्टी, गहू
नकाशा: कार्ड, आकृती, आलेख, भाडे, तिकीट, चिन्ह, चिन्ह, नेतृत्व
कारंजे: स्रोत, धबधबा, अपूर्णांक
कॉलर: भोवती, झोन
पुनर्स्थित: बदलण्याचीशक्यता, च्याजागेवर, सुटे, पर्यायी, पर्याय, पर्याय, विस्थापन, बदल, बदलू, सुधारणा, उप, सुधारित, स्विच, आराम, परिस्थितीशीजुळवूनघेत, भरपाई
मुद्दाम: जाणून, मुद्दाम, जाणीव, लाजाळू, हेतुतः, अपघाती
बिअर: पाइण्टचेमाप
मखमली: 
सकारात्मक: सकारात्मक, सक्रियपणे, मर्जी, मर्जी, संपूर्णपणे, पूर्णपणे
गुरुत्व: आकर्षण, क्रश, गंभीरपणे
कानउघाडणी: हासंदेशजाहीरकरा, प्रवचन, व्याख्यान
भागीदार: सहकारी, सहकारी, मैत्रीण, प्रियकर, जोडी, सोबती, सामान्य, संयुक्त, भागधारक, सहकारी, पती,पत्नी
दुरुपयोग: चुकीचा, चुकून, उद्गार
कळप: गट, कळप, थवा, उद्योजक
तेरा: तीस
समायोजित: वॉरंट, आर्जवकरणे, वकील, समर्थन, न्याय्य, कायदेशीर, समायोजित
हस्तलिखित: बिल, स्क्रिप्ट, फिर्यादी
शुक्रवारी: चांदी, शुक्रतारा
ब्रश: कंगवा
डाउनलोड: अपलोड
मलई: बर्फमलई
अक्राळविक्राळ: राक्षस, राक्षसी
गोठविलेल्या: गोठवू
भांडे: पॅन, , किलकिले, कंटेनर, कुकर, थाप, भांडे
तांदूळ: 
वर्तन: वर्तन, वर्तणुकीशी, वर्ण, सवय, वैशिष्ट्यपूर्ण, प्रवृत्ती, आचार
नाणे: चलन, चांदीचेनाणे
महसूल: उत्पन्न
आग्रहधरणे: मोठ्याने, मुसंडी, ठासूनसांगत, अधोरेखित, महत्व, टिकूनराहाणे, आग्रह, आवश्यक, भर, त्यासाठीवापरलेलीशक्ती, भर, भांडणे, आरोप
झेप: 
सफरचंद: दिलगिरी, दिलगीरआहोत
चर्चा: चर्चा, वाटाघाटी, भांडणे, हॅश, चर्चा
पार्श्वभूमी: 
नक्कलकरणे: परिस्थितीशीजुळवूनघेत, नक्कलकरणे, आवआणणे
मनोरंजन: मनोरंजन, मनोरंजन, श्रम,विश्राम,, मनोरंजक, मनोरंजनासाठी, मजा, छंद, विश्रांती, मनोरंजनकरणे, आदरातिथ्य
व्हायरस: 
बालिश: असाआवाजअसणारी
झगा: वस्त्र, ड्रेस, घालणे, एकसमान, साहित्य, अ
प्रतिबिंबित: योजना, ध्यान, मनन, प्रकट, प्रोजेक्शन, शब्दचित्ररेखाटणे
रूपांतर: बदल, परिवर्तन, स्विच, उत्परिवर्तन, संक्रमण, परिवर्तन
बाह्यरेखा: चरित्रात्मकलेखलिहिणे, रुपरेषा, सारांश, रेखाटन, उघड, आढावा, मसुदा
संगीतनाटक: 
कोपर: कंस
जोड: परिशिष्ट, कनेक्शन, पॅच, दुवा, कनेक्टर
दुरुस्ती: जीर्णोद्धार, सुधारणा, पुनर्रचना, दुरुस्ती, सुधारणा, दुरुस्ती
घट्टमुठ: असाठोसा, पकड
संशयास्पद: संशय, संशयित
पवित्रशास्त्रसांगते: बायबल, टाइपफेस, स्क्रिप्ट
खड्डा: भोक, उत्खनन, पूल, खंदक, बोरॉन
अराजक: अनागोंदी, गोंधळ, अशांतता, दंगल, गोंधळ, अस्वस्थकरणारी, हस्तक्षेप, चूक, अडथळा
टाळ्या: पाठीवरथापमारणे, प्रशंसा, मान्यता
बायनरी: dyadic
मठ: मठ
बाण: 
कल: जबाबदार, सहसा, साधारणपणे, आवड, भरपूर, समावेश, एकहीरननाही, कल
गुंतागुंतीचा: तपशीलवार, परिभाषित, स्पष्टीकरण, विकसित, क्लिष्ट, अवघड, कामबाहेर
निष्ठा: एकनिष्ठ, निष्ठावंत, विश्वास, विश्वासाने, प्रामाणिकपणे, अविश्वास, विश्वासार्हता, विश्वास, विश्वास
भीतीनेथरथर: थरकाप, कंप
हद्दपार: अंकुर, परदेशात, सहारा
यांत्रिक: यंत्रणा, मेकॅनिक, यांत्रिकी, अभियंता
यशस्वीरित्या: छान, यशस्वी, अयशस्वी, परिणाम
सापळा: पकड, शिक्षाझालेलागुन्हेगार
केक: , पाई, कुकी, dough
सर: श्री, सत्कार, स्वामी, गृहस्थ
अजिबातसंकोच: , तडाखा, वारंवारप्रकट, वारंवारता, मागेपुढे
सतरा: 
नाजूक: नाजूक, महिला, महिला, नाजूक
मध: 
भागभांडवल: पण, प्रमाण, ब्लॉकला, शेअर, अपूर्णांक, योगदान, जुगार, भागधारक
वीट: टाइल
आख्यायिका: समज
कापणी: पीक, पिके
स्टोव्ह: कुकर, स्लॅब, ओव्हन, शेकोटी
बंडखोर: बंड, बंड, निर्णायक
जुन्याहाताचाआधारदेतोस: प्राचीन
फुगणे: फुगविणे, सुजलेल्या, महागाई, सूज, मोठा
सुधारण्यासाठी: वाढवण्याची, वाढविण्यासाठी, निराकरण, उपाय, बरा, बरे, सुधारणा, जोडा, जोडा, प्रसार
गोलंदाजी: 
टकलावूनपाहणे: निराकरण, टकलावूनपाहणे
औद्योगिक: उत्पादन, औद्योगिकीकरण, उद्योग
जमिनीच्यापृष्ठभागावरखतघालणे: सॉस, मलमपट्टी
थीम: विषय, निबंधातील, विषय, समस्या, हेतू
संन्यासी: 
व्यवस्थापक: कारभारी, मुख्य, बॉस, प्रशासक, संचालक, तेनियंत्रकाच्या, नेते, कार्यकारी
ड्रॅग: काढणे, खेचणे, खेचणे, मागे, मागे, कात्री, त्यासाठीवापरलेलीशक्ती, ड्रॉवर, औषध
एकासुरात: ड्राइव्ह
कारणाचा: न्याय्य, तर्कशास्त्र, लॉजिकल, अवास्तव, शहाणा, माफक, वाजवी, उघड
प्रक्रिया: संपादन, प्रोसेसर, प्रक्रिया, प्रक्रिया, प्रक्रिया
लांडगा: 
कार्पेट: गालिचा
पुरातनवास्तू: प्राचीन, युग
सुपीक: Fourier
शीळघालणे: बासरी
चीज: 
हानी: बारीकतुकडेकरणे, मांसाचेतुकडे, कोणतेहीदु:ख, भाकरीचातुकडा, आचमनघेणे, हानी, हानी
कॅथेड्रल: 
बहकणे: रपेट, स्थलांतर, वाढ, निघून, कुरूपता
नौदल: सागरी, चपळ
लपवू: बाह्य, जंत
पेन्सिल: पेन
भाजीपाला: शाकाहारी
पायघोळ: विजार, अर्धीचड्डी
भ्रष्टाचार: लफडे, प्रदूषण
कॅबिनेट: कपाट, लहानखोली, अ, शौचालय
सूप: 
सर्जन: शस्त्रक्रिया, होणारी, ऑपरेशन, विश्लेषक
भत्ता: बदलण्याचीशक्यता, पर्याय, भरपाई, नामाचेस्पष्टीकरणकरणाराशब्दकिंवाशब्दसमूह, वाटप, परिशिष्ट
गुप्तचर: आकलन
बेपर्वा: निष्काळजी, नसणारी, निष्काळजीपणा, अवास्तव
गप्पाटप्पा: अफवा, अफवा, गप्पा
प्रणाली: प्रणाली
टोकन: 
गोषवारा: सारांश, अभ्यासक्रम
उच्चारण: उच्चार, उच्चारण, बोली, भर
प्रामाणिकपणे: प्रामाणिकपणे, गंभीरपणे, प्रामाणिक, विश्वासाने
मंजूर: अवलंब, अधिकृत, मंजूर, पुष्टी, जाहीरकरणे, संमती, मान्यता, मान्यतादेणे, स्वीकार, मंजूर, अनुकूल, मंजूर
आर्किटेक्चर: रचना, बांधकाम, पोत
क्षणात: चीर, वेडसर, निघून, राजीनामा, फ्रॅक्चर
फरसबंदी: अंकुश, खेळपट्टीवर, चिखल, , , पॅकेजिंग
निर्णायक: महत्वाचा, महत्वाच्या, निर्धारित, निर्णय, खंबीर, लागू, निर्देशीत, अंतिम, गंभीर, निर्णायक
नकारात्मक: प्रतिकूल, नकार, नकार, रद्दकरणे
उत्सव: मैफिल, किडा, उत्सव
देशद्रोह: 
शिकारी: भक्षक
साप: सरपटणाराप्राणी
बॅटरी: 
गुप्तहेर: कपात, तपासनीस
पोहणे: पोहणे
लिफाफा: परिस्थिती, क्रियाविशेषण
सिगारेट: धूम्रपान, तण
मोटर: वाहन, इंजिन, हेतू, मोटारसायकल, मोटारसायकल
स्वयंसेवक: जीवनसमर्पण, ऐच्छिक, प्रेम
प्रतिक्रिया: reactive, प्रतिसाद, प्रतिसाद, प्रतिक्रिया, अभिप्राय, असुरक्षितता, अणुभट्टी
सामान: सामान, वाहतुक, ट्रंक, सुटकेस, गृह
बहिरा: 
रस: अर्क
लैंगिक: सेक्स, लैंगिकता
हिरा: रत्न
इको: 
ओळख: ओळख, ओळख, प्रतिकात्मक, मित्रांमध्ये, ओळखता, ओळख
राजदूत: दूत, मुत्सद्दी, चयापचय
आळशी: कुजलेला
momentaneपैलू: 
वाहूननेणे: ऑपरेशन, झुकणे, प्रवृत्ती, कल, प्रवाह, भूमिका
काल्पनिक: फॅन्सी, कल्पना, कल्पना, कल्पनारम्य, रम्य, काल्पनिक
किरण: तुळई, जायचीवाट, त्रिज्या, फंड
गिर्यारोहण: जाणे, वनस्पती, पेरणी, चढाव, रांगणे
शाई: 
संस्मरणीय: प्रमुख
गोंगाटकरणारा: आवाज, ओरडणे, मोठ्याने, मोठ्याने
सर्वोच्चनियामकमंडळ: संसद
वाहतूक: चारचाकीघोडागाडी, वाहतूक, खेचणे, वाहतूक, शटल, हस्तांतरण, रूपकाच्या, संचालन
शवपेटी: मुलूख
गिळणे: आचमनघेणे, भरपूर
लाड: पाठपुरावा, पूर्णकरणे, अंतर्भूत, अंत:, तैनातकरणे
कृषी: शेती, शेती, शेत
स्विंग: 
कुरण: नवीनकार्यक्षेत्रे, पूर्व, लॉन
जटिल: क्लिष्ट, क्लिष्ठ, अत्याधुनिक, कंपाऊंड, अवघड
राजीनामा: राजीनामा, निवृत्ती, पाठीमागे, माघार, राजीनामा
नम्रनोंदणी: 
मिरपूड: 
पोनी: 
उमेदवार: अर्जदार, , नवीनसदस्य
कोल्हा: 
धुराडे: शेकोटी, स्टॅक
कार्यकक्षा: अधिकार, न्याय, न्याय, लायकी
माजीमृत: 
लोकशाही: लोकशाही
घोंगडी: कमालमर्यादा, कव्हर, गालिचा, कव्हरेज
डुक्कर: पेरणी
हस्तिदंत: हत्ती
फिकट: लेखक
निरीक्षक: पर्यवेक्षक, अभ्यागत, निरीक्षक
नखे: नखे, नख्या
मधमाशी: 
अभिनेता: अभिनेत्री, परफॉर्मर, फिर्यादी
घाम: शिवणे
पोलिश: बोली, प्रकाशणे
मोहजाल: फसवणूक
अनिश्चितता: अनिश्चित, असमंजसपणा
माध्यमिक: किरकोळ
ग्रामीण: प्रांतीय, शेतात, गावातील
अभिसरण: पळवाट, सायकलिंग, चक्रीय, प्रभाव, प्रसार, मंडळ, सायकल, वारंवारता, रोटेशन, फिरवा, वाहतूक, एखाद्याठिकाणच्यापे्रक्षणीयवमहत्वाच्यास्थळांनाभेटदेणे, संचालन
कण्हणे: 
सारखाअसणे: समान, सारखेपणा, आठवणकरून, संबंधित, सारखे
कोट: अर्क, अवतरण, अवतरणचिन्हेपूर्णकरा, कर्जाऊदेणे, कर्जकाढावेलागणार, कर्ज, संदर्भ, अंदाज, पुरावाम्हणूनपुढेकरणे
बिछाना: घालविणे, बाद, पिशवी
त्रास: दंगल, हस्तक्षेप, व्यत्यय, दु:ख, कंटाळवाणेपणा, त्रास, आवाज, त्रासदायक
सुई: इंजेक्शन, पिन, पॉईंटर
नियंत्रित: नियंत्रण
अडथळा: निर्बंध, मर्यादा, मर्यादित, बंदी, प्रतिबंधकरणे, अडथळा, ब्लॉक, व्यत्यय, अपंग, अडथळा
अवलंबून: गणना, मानतो, अवलंबून, विश्वास, हमी, रिलायन्स, अवलंबून, विश्वास
चिकन: कोंबडी
बंदुकीचीनळी: बादली
नेहमीचापैलू: 
तज्ज्ञ: विशेषज्ञ, अनुभवी, विशेष, विशिष्ट, खास
छाप: परिणाम, ठसा, आकर्षित, प्रभावित
व्हॅन: झडप
डुलकी: डुलकी
व्याख्या: भाष्य, ओळख, वर्णन, निर्धार, यातूनअसाअर्थनिघत, न्याय
वाढदिवस: वर्धापनदिन
हातोडा: 
सुवासिक: सुगंधी
क्षुल्लक: मामुली, बिनमहत्त्वाचे, थोडा, किरकोळ
खणूनकाढता: खणुनकाढणे, धान्यपेरण्याचेयंत्र, उत्खनन
पाळीवप्राणी: सार, वाढवणे
डोक्याचीकवटी: 
विधीमंडळ: संसद, कायदे, विधान
टाच: उडी, घोट्याच्या
नापसंतीव्यक्तकरणे: 
पेटंट: परवाना, परवाना
अब्ज: 
रासायनिक: रसायनशास्त्र, रसायने, रसायनशास्त्रज्ञ, रासायनिक
नाडी: प्रेरणा, मनगट, गती, नाडी
पायलट: प्रयोग, प्रायोगिक, ड्राइव्हर
गाठ: ढेकूळ, नोड, धरा, करार, निष्कर्षकाढला, दशकात, विणणे, जंक्शन, कच्चा, क्रूड, गाठ
परकर: खडक
उदासीनता: मोठाकोनाडा, कमीहोणे, दु:ख, दु:ख, दु:ख, उदासीन, ताण
तांत्रिक: तंत्र, तंत्रज्ञान, तांत्रिकदृष्ट्या, टेक, प्रगत
वाहन: ड्राइव्ह, कार, कार्ट, अर्थ, वाहन
व्याप्ती: विस्तार, डोमेन, क्षेत्र, श्रेणी, पोहोचण्याचा, प्रमाणात
वनस्पती: वनस्पती
सुर्योदय: 
योगदान: योगदान, दान, भागीदारी
हुक: संबंधित, कनेक्ट, परस्परसंबंधअसणे, कंस
वाघ: 
बाही: हात, किरकोळ
महामार्ग: रस्ता
नागरिकांना: 
एकाग्रता: एकाग्रता
पारदर्शक: पारदर्शकता, स्पष्ट, स्पष्टपणे, स्पष्ट, स्पष्ट, जाहीरपणे, अस्पष्ट, स्पष्ट, सोपे
एकोणीस: 
मोजणी: गणना, एकूण, गणना, मोजणी
पात्र: पात्र, पात्रता, सक्षम, गुणवत्ता, पात्र, पात्र, कुशल, सक्षम, वैध, लायकी
सेंद्रीय: जीवाश्म, आवश्यक
वेदान्त: 
फ्लोट: बोट, मागेपुढे, चपळ
ग्लॅमरस: 
स्टुडिओ: लेबल, कार्यशाळा, अभ्यास
पांढरेचमकदारमद्य: 
बॅनर: झेंडा, पोस्टर, तिकीट
घटस्फोट: तिच्यानवऱ्यानेतिलासोडून
बोल्ट: आकाशातचमकणारीवीज, नखे, पिळणे, स्क्रू
रक्तवाहिनी: मज्जातंतू
निष्क्रीय: प्रेक्षक, अक्षम
रेव: एकूण
ग्रह: प्राथमिक, ग्रह
शेल्फ: छळकरण्याचेएकसाधन, कपाट
चाहता: 
उष्णदेशीय: तापट
टप्प्यात: फोटोग्राफिक, टप्पा, याकालावधीत, बांधकाम, पाऊल
अनियंत्रित: उत्स्फूर्त, पर्यायी, करार, एकमताने, अनियंत्रित
ब्रह्मानंद: ट्रान्स, उत्साह, आनंद, आनंद
पारा: तापमान
आत्महत्या: 
रिपोर्टर: पत्रकार
हिरावूनघेणे: हानी, मागे, वगळण्याची, वजा, रद्दकरणे, लुटणे
बाल्कनी: टेरेस, पोटमाळा
काटा: लोक
कर्मचारी: कार्यकर्ता, मजूर, काम, घटक, अवलंबून, लिपिक, कर्मचारी, कामगार, कामगार, कर्मचारी
नियोक्ता: बॉस, जमीनदार, मालक
रुंदी: सामान्यपणे, पुरवठा, रुंद, उपांत्य
तापलेल्या: 
चिडून: राग, उत्सुक, संतप्त, डिवचणे, उत्तेजितहोणे, कंटाळले, प्रेरणा, उत्तेजित, प्रोत्साहन, प्रेरणा
क्लासिक: शास्त्रीय, इष्टतम
माकड: एकमोठाआफ्रिकनवानर
मान्य: स्वीकार, स्वीकृती, बदललेअसले
स्वाक्षरी: 
गायक: वाचक
सनातनी: पुराणमतवादी, परंपरागत, पारंपारिक
नर्सरी: वृक्षारोपण
दत्तक: कामावर, अवलंब, स्वीकृती, समज, मान्यता, पक्ष, रिसेप्शन, प्रवेश, शर्यतीच्या, भाग
नाखुषीने: , तिरस्कार
आयात: परिचय, उत्पन्न
मशाल: 
व्याकरण: व्याकरणाची
ठेव: साठवणे
वसाहती: परदेशातून
नौका: फेरी, बोट
घाबरविणे: घाबरणे, भयभीत, नाउमेद, गजर, तोंडचे, वारंवारप्रकट
आकस्मिक,विशिष्टपरिणामस्वरुप: परिणाम, भाग, महत्वाचे, सिंहाचा, अग्रगण्य, प्रमुख, अत्यंत, लक्षणीय, खारा, अर्थपूर्ण, अप्रत्यक्ष
मृत: गहाळ, अदृश्य, मृत
घुमट: 
जाडी: 
हट्टी: खंबीर
स्नायू: 
विशालता: आकार, मोठ्याप्रमाणात, मोठेपणा, गेज, प्रमाण, तीव्रता
घासणे: 
शेकघेणे: नाश्ता
माऊस: घूस
अक्षर: टाइपफेस, वर्णमाला
तटस्थ: प्राणी, गोरा, धर्मनिरपेक्ष
शोधणे: मुल्यांकन, ओळख, ओळखले, ओळख, शोध, शोधूनकाढणे, परतमिळवणे, शोधणे
भरभराट: समृद्धी, यश, धंद्याचीभरभराट, रत्नजडित, रत्न, फूल
लादणे: शक्ती, अंमलबजावणी, निर्धारित
निनावी: 
औपचारिकनोंदणी: 
वासरु: धांदल
मॅन्युअल: मार्गदर्शन, , मार्गदर्शकसूचना, , ब्रँड, नेतृत्व, पाठ्यपुस्तक, सूचना, नेते, पर्यवेक्षक, दस्तऐवज, दस्तऐवज, ऑपरेशन, उत्पादन
आगाऊ: अपेक्षित, , अपेक्षा, अपेक्षा, अपेक्षा, अंदाज, अंदाज, अंदाज, तरतूद
वितळणे: नाहीसाहोणे, जवळीक, फ्यूजन, एकहोणे, विद्रव्य
छत्री: हवाईछत्री, बुरशीचे
बूट: बूट, ट्रंक
खनिज: आयोडीन, पोषण, धातू, मॅंगनीज
युद्धविराम: शस्त्रसंधीचे
परतले: 
साबण: 
बाहुली: बाळ, टॉय
व्हिला: काल्पनिककथा, आजरात्रीचामुक्काम
शिवणकाम: शिवणे, शिवणे
समेट: मध्यस्थीकरूनघडवूनआणणे, एकहोणे, मैत्रीकरणे, समायोजित, समायोजन
किटली: 
ससा: 
मार्गदर्शक: शिडी, अधीक्षक, ड्राइव्हर, नेते
खेळाडू: परफॉर्मर
कीटक: कीटक, जंत, किडा
उपहारगृह: 
संपूर्ण: दहशतवादी, जहालमतवादी, पुरोगामी, क्रांतिकारक, अत्यंत, संपूर्ण, संपूर्ण, संपूर्ण, संपूर्ण, संपूर्ण
निवासी: निर्जन, मुळ, घरगुती, देशी, भाडेकरी, निवासी
त्याप्रचंडसापाने: घार
श्रवणसाक्षीसंबधी: 
रेंगाळणे: दीर्घकाळापर्यंत
झाकण: कव्हर, टोपी, डेक, झडप
महापौर: बाजार
हार्डवेअर: साहित्य
सर्जनशील: 
अल्पसंख्याक: काही, दशांश
खंदक: खंदक, उत्खनन
वाद्यवृंद: 
खारवूनवाळवलेलेडुकराचेमांस: 
फिर्यादी: चालु, केस, खटला, दावा, उद्योगधंदा, दावा, फिर्यादी
गैरसोय: नुकसान, हानी, प्रतिकूल, दोष, अपंग, अडचण
फॅब्रिक: कापड, कपडे, टॉवेल, कॅनव्हास, मेदयुक्त, मदत, रचना
संगीतकार: संगीतकार, संगीत
मानसिक: आध्यात्मिक, वेडा, मानसिकधैर्य, मन, काल्पनिक, मानसिक, मानसिक, मानसिक
अयोग्य: चुकीचा, नस्वीकारलेले, सदोष, असंबद्ध, अपेक्षित, बेकायदेशीर, अपुरी, अयोग्य, अयोग्य
आर्किटेक्ट: 
लग्नकरणे: 
लिंबू: 
खोकला: खोकला
कस: पुनरुत्पादन, जातीच्या, जननेंद्रियाच्या
यादृच्छिक: सहजगत्या, यादृच्छिक, अपघाती, , उत्स्फूर्त, stochastic
चमचा: बादली
डायरी: दररोज, वृत्तपत्र, जर्नल, कॅलेंडर
फुगा: 
inferentialसाक्षीसंबधी: 
प्रकाशक: संपादक, प्रकाशन
राख: राखाडी, राखाडी
फारसाअर्थनसलेलावाक्यातवापरलेलाअपशब्द: शपथविधी
पुन्हाचालू: पुनरुज्जीवन
संवेदनाक्षम: असुरक्षित, संवेदनशील, शहाणा, भावनिक, जबाबदार
बोगदा: भुयारीमार्ग
कोडे: चुकीचाआहेअसेसिद्ध, गोंधळातटाकणारे
यंत्रणा: प्रक्रिया, नियमानुसार, पद्धतशीर, यंत्रणा, उपकरणे, दृष्टिकोन, धोरण
गणित: गणित, गणिती, गणित
सुकूनजाणे: 
संतुलित: प्रमाण, सहसंबंध, प्रमाण, सुसंगत, शाश्वत
sublativeकेस: 
उतार: यातजा, अंत:, थेंब, याकुशीवरुनत्याकुशीवरलोळणे, प्रादुर्भाव, उतार, उतार, ग्रेडियंट, भिजवून, घट, कमीहोणे, उतार
युनिट: ऐक्य, अस्तित्व, विभाग, पक्षाचीचोच, असामान्य
एकाधिकार: विशेष
जुगार: जुगार, खेळ, सामना, मंजुरी, बेटिंग
पाणबुडी: 
पर्वानकरता: 
भूकंप: प्रचंड
प्रयोगशाळा: लॅब
टिप्पण्या: टिप्पणी, शेरा, भाष्य, उत्तर
पडत: पास, अनुभवी, प्राप्त
स्वत:चीनियंत्रण: 
दूतावास: 
अध्यक्ष: अध्यक्ष, अध्यक्ष
नवीनशोधलावणे: शोध
घोषणात्मकमूड: 
हातमोजा: 
गुडघेटेकणे: 
भूगोल: 
गुंतवणूक: गुंतवणूक, उपक्रम
समानता: समता, सारखेपणा, ओढ, नाते, प्रमाण
बहिरीससाणा: गरुड, खाच
मानसशास्त्र: शारीरिक, मानसिक
स्क्रॅप: रद्द, कचरा, कचरा, तुकडा, फेक, फेकणे
चाचे: हॅकर
भूमिका: शेअर, शेअर, सहभागी, परिचय, वर्ण, भूमिका
गुटी: प्रमाण, आहार, भागाकार, रेशन
तांबूसपिवळटरंगाचा: 
सांजा: 
चुंबकीय: आकर्षक, स्वत:
पंप: बॉम्ब, निर्वात
ऑक्सिजन: 
सीमा: धार, नदीचाकाठ, किरकोळ, मार्जिन, गौण, सीमा, सीमा
प्रमाणपत्र: 
पदक: 
वक्तृत्व: 
इतकाप्रभावी: जिना, चालणे, पाऊल
खरवडणे: सुरवातीपासून, चरणे, पापकरायलाप्रवृत्तकरतो
लॉगिन: आक्रमण, लॉगइन
एकमेकांवरजोरातआदळणे: सूक्ष्मदर्शकाखाली
हार: पराभव, पेस्ट, साखळी
शब्दलेखन: शब्दलेखन
सर्फ: 
व्हिस्की: 
उंट: 
हौशी: 
प्रौढ: प्रौढ, वय, वृद्ध
चरित्र: वीज
गाढव: 
दृष्टीकोन: दृष्टीकोन
प्रो: व्यावसायिक, सकारात्मक, ऍडाप्टिव
मासिक: मासिक
सुट्टीतील: सोडून, सुट्टी, उर्वरित
क्लिककरा: कंपू, स्नॅप, तडाखा
ओव्हल: 
लवचिक: रबर, लवचिक
शब्दकोश: एखाद्याभाषेतीलशब्दसंग्रहासंबंधी, शब्दसंग्रह, पूर्व
विभाजन: पाणलोट, विभागणी, यंत्रातीलबिघाड, ब्रेकखाली, गणना, कप्पा, विभाग, तुकडा, घटक, घटक
हेham: मांडी
इंद्रधनुष्य: 
जीव: प्राणी, निर्मिती
थुंकणे: सोबती, जीभ
आउटलेट: बाहेरपडा, सॉकेट, उत्पादन, निर्गमन, पकड, स्लॉट
टाकी: जलाशय, कंटेनर, कुंड
फुलपाखरू: 
चार्ट: आकृती, आलेख, ग्राफिक, ग्राफिक्स, योजना, यादी, यादी
जुळीमुले: दुहेरी, दुहेरी, जोडी, जोडी
अपमानास्पद: अपमान, कलंक, गुन्हा, पापकरायलाप्रवृत्तकरतो, गुन्हा, शाब्दिक, आक्षेपार्ह
स्वतंत्रपणे: स्वतंत्र, मुक्तपणे, आमच्या, तोंडहाती, स्वतंत्रपणे
मार्श: 
भयानकअनुभव: स्वप्न
ठप्प: जेली, पिळणे
श्रोता: ऐका
संग्रहालय: 
स्थिरता: स्थिर
उघड: घोषणा, प्रकट, शोध, उघड, पूर्ववत, प्रकाशित, शोधू, वेगळे, उघड
आक्रमक: अडथळा, गोंधळ, व्यवसाय, आगळीक, आक्षेपार्ह, बॉम्बफेकीविमान
घर्षण: सत्तायांमधीलशत्रुत्वाची
सहभाग: उपस्थिती, सहभागी, सहभाग
पदपथ: पदपथ
कोळी: कोळी
बटाटा: 
मेकर: निर्माता, उत्पादक, तयारी, उत्पादन, उत्पादन
लोभ: भूक, भूक
अकाली: लवकर
गुणाकार: दाबा, जातीच्या, गुणाकार, दुहेरी
आकडेवारी: संख्याशास्त्रीय, आकृती, आकडेवारी
उमेदवारीअर्ज: नामनिर्देशन, नियुक्ती, निवड, प्रतिबद्धता
ट्रिलियन: 
होकारार्थीमूड: 
अनुप्रयोग: अनुप्रयोग, प्रक्रिया, लागू, अर्ज
नाममात्र: चरणे, निर्दिष्ट, समता
असंतोष: 
संसर्ग: संक्रमित, संसर्ग, संक्रमण, यारोगाचाप्रसार, संसर्गजन्य
औदासिन्य: हिसका
फुटबॉल: फुटबॉल, जोर, कॅल्शियम
पायोनियर: प्रमुख, आघाडीचेगार्डे
असामान्य: असामान्य, विलक्षण, चक्रममनुष्य, विलक्षण, अतिशयोक्तीपूर्ण, अभूतपूर्व, आदर्श, असामान्य
वगळणे: मुलभूत, बोलण्यातीलअगरवागण्यातीलप्रमाद, कमतरता, निष्काळजीपणा, दुर्लक्ष, लोप
चिरडणे: गर्दीच्या, पुश, कणीकमळणे, कपात, मुसंडी, दबाव, क्रश, आकलन, पकड
टक्केवारी: टक्के, टक्के
idiophone: 
तरफ: 
पैसेकाढणे: परत, उलटजाणे, माघार, सॉकेट, आठवणे, निष्कर्ष, कयास, उत्पादन, परिणाम, मागे, एकूण
सिनेटचासदस्य: 
मुंगी: 
गर्भवती: आईचा, विचार
रोज: दररोज
द्रवस्थितीमध्येअसलेलापदार्थघनरूपहोऊनखालीबसणे: पर्जन्य, तळाशीजमणारागाळ, गती, तातडीचे, गती
चल: बदलू, चल, जागतिक, मोबाइल
कुरळे: केसकुरळेकरणे, फेकणे, स्क्रोल, हेलिक्स
गंधक: गंधक, तुटलेली
युरोपिअन: खंड
लावण्यासाठी: सूचना, आदेश
बेडूक: 
जास्तकेस: 
दळणे: अर्धा, उपांत्य
irrealisमूड: 
घरामध्ये: घरातील, आत, आत
शोषण: वापर, लक्षवेधूनघेणे, यश, अन्वेषण, दरोडा, शोषण
भूवैज्ञानिक: भूमिगत
पासपोर्ट: 
अनैतिक: लबाडीचा, कुजलेला
बिस्कीट: कुकी
सहकार्य: सहकार्य, भागीदारी, एकीकरण, मदत, योगदान
इतरांनामागेटाकणे: करा, पूर्ण, निर्मिती, तयार, कवणे, निर्माण, खोटेपाडणे, फॉन्ट, हुबेहुबप्रतिकृतीतयारकरणे
अणू: आण्विक, कण, वैयक्तिक
एड्स: मदत, मदत
दोषकाढण्याचीप्रवृत्तीअसणारा: नाजूक, त्रासदायक
पिरॅमिड: 
बेकायदेशीर: बेकायदेशीर, नॉन
माहत: लाजाळू, आकुंचन
सतार: उतार
खगोलशास्त्र: 
चक्रव्यूह: असमंजसपणा
शिष्यवृत्ती: प्रायोजकत्व, पुरस्कार
फायबर: फायबर, मोळी, गाठ
क्रिकेट: 
पारवा: 
जूळवूनघेण्याचीप्रक्रियाकिंवात्याचापरिणाम: परिस्थितीशीजुळवूनघेत, वस्तू, पालन, बदल, समायोजित, ऑप्टिमायझेशन, ऍडाप्टिव, निवासव्यवस्था
नापसंती: एखादीगोष्टचांगलीकिंवायोग्यनाहीअसेम्हणणे, disapproving, विरोधी, विरोध, निषेध, काउंटर, विरोधक, विरोध, नकार, शोधकाढूण, नकार, घालविणे, मनाई, पापकरायलाप्रवृत्तकरतो, शिक्षक, सहमत, नजुळणे
ऑपरेटर: वाहक
त्रिकोण: 
खजिनदार: 
हायड्रोजन: 
प्रिंटर: 
गळादाटूनयेणे: खडू
तीव्र: प्रतिरोधक, गंभीर, तीव्र, मोठ्यामानाने, अत्यंत, तीव्र, तीव्र
झुंजणे: चकमकीत, परिस्थितीशीजुळवूनघेत, धैर्यानेतोंडदेणे, ऑफसेट, मात, हाताळताना, contrastive, करार, पूर्ण
कोंडी: गोंधळलेला, गोंधळातटाकणारे
लक्षणं: संकेत, ऑफर, प्रदर्शन, प्रदर्शित, सादरीकरण, इंद्रियगोचर, निदान, सिंड्रोम, वैशिष्ट्यपूर्ण
सायकल: दुचाकी, सायकलिंग, सायकल, सायकल
अभियांत्रिकी: तंत्र, तांत्रिकदृष्ट्या, यांत्रिकी
आवर्त: हेलिक्स, फिरकी
कॅमेरा: खोली
नृत्यांगना: 
स्थलांतर: स्थलांतर, इमिग्रेशन
टेनिस: 
व्यसनी: अवलंबून, विश्वास, रिलायन्स, गुलाम
विणणे: वेणी, विणणे, विणकाम, मेदयुक्त, पोत
पाठीचाकणा: 
तळणे: उकळणे
सुविधा: जाहिरात, उत्तेजितहोणे, प्रवेग, वाढवणे, कमी, सुलभ, सुविधा, उपयुक्तता, आराम
एखादीगोष्टकरण्याचाप्रयत्न: कोणतेहीदु:ख, हलवा, बळकावणे, प्रयत्न, प्रयत्नकेला
पासवर्ड: सिग्नल, सूचना, घोषणा, माझे, कोड
अर्धगोल: मर्मभेदक, टीप
निराशावादी: निराशाजनक, उदासीन, परावृत्त, दु:ख, डिवचणे
धोरण: मोक्याचा, धोरण, धोरण
गस्त: , पेट्रोल
हिमनदी: 
हाफवे: अर्धा, अंशतः, उपांत्य
निवेदन: करार, करार, अधिवेशन, एकमताने, वॉरंट, निवेदन
सुळका: 
सममिती: 
प्रतिवादी: वकील, विरोध
मशीद: 
एक्झॉस्ट: उत्सर्जन, बाहेरकाढा
बुद्धिबळ: 
मध्यवर्तीभाग: आण्विक, सेल, सार, कोर, केंद्रीय, गर्भ, गर्भाची, कर्नल, पदार्थ
चेरी: 
ठेच: याकुशीवरुनत्याकुशीवरलोळणे
ट्रक: लॉरी, मालवाहूबोट, ट्रॅक
वायरलेस: रेडिओ
लिलाव: विक्री
चाळणी: डीबग
चंचल: अस्थिर, अस्थिरता, अनिश्चित, अस्वस्थ, अस्वस्थ
शोषूनघेणे: लक्षवेधूनघेणे, भिजवून
मित्रत्वाचानसलेला: दुष्ट, विरोधी, प्रतिकूल, हानीकारक
च्याजनगणनेनुसार: गणना
अत्यंतउतावीळपणे: पायाचेबोट, तयार, अर्जदाराच्याकुंटुबाचीसंपूर्णमाहिती
आराम: विश्रांती, आरामशीर, विश्रांती, श्रम,विश्राम,, आराम
सातत्य: सतत, सुरू, संयुक्तरुपाने
बबल: 
गिटार: इ
बायस: प्राधान्य, गाठ, झुकणे
चमकदार: तेजस्वी, आहे., तल्लख
यांपैकीजीरक्कम: कोणत्याही, जेकाही, जे, जोकोणी, आपापसांत, पाण्याच्यापृष्ठभागाखाली
तर्ाचे: विणकाम, विणणे, वेणी
विमान: वाढ, मागेपुढे, घसा, उड्डाण, प्रसिद्ध, विमान, विमान, विमान, विमान
सर्वनाममार्कर: 
मसाला: कळकळ
जामीन: बॉण्ड, हमी, प्रतिज्ञा, हमी, प्रायोजक, रत्नजडित, रत्न
छेडणे: परीक्षा, त्रासदेणे, संतप्त, लुब्ध
जावा: 
कृती: पद्धत, प्रेरणा, नियम, सुत्र, सूचना, जुळता
नांगर: निराकरण, अपहरण
चिखलातून: काढूनटाकावे
धूमकेतू: फरारी
नावीन्यपूर्ण: शोध, शोध
मध्ययुगीन: चेंडू
सजावटीच्या: सजावट, सजवण्यासाठी, 
प्लास्टिक: 
तळटीप: 
डेअरी: दूध, सामान्य, नियमित
गोल्फ: 
शून्य: निरर्थक, रिक्त
झिप: पिळणे
ट्रिगर: 
चिप: तुकडा, तुकडा, स्लाइस, हिस्सा
छळकरु: दडपणे, दडपूनटाकणे, खालीआणणे, चिरडूनटाकणे, चोरी
जांभई: नाहीसाहोणे
असमानता: 
तीळ: माती
मातीचीभांडी: माती, माती
गृहिणी: 
असमंजसपणाचे: अवास्तव
खाणकामगार: किरकोळ
यीस्ट: सजीवांच्याशरीरातनिर्मार्णहोणारेद्रव्य, dough, 
जाऊनदेणे: मना, हाताळताना
प्रीमियम: बोनस, बक्षीस, पुरस्कार
पर्याय: पर्यायी, पर्याय, पर्यायी, काकडी, निवड, निवड, जिच्यामध्येvariant, प्राधान्य, प्राधान्य, पर्यायी, पर्याय, पर्याय
पदवीधर: परीक्षा, पास
दिवाळखोरी: अपयश
सिंचन: 
भांडवलशाही: भांडवलशाही
लवचिकता: लवचिकता
भूमिती: भूमितीय
शार्क: 
स्टोरेज: रक्षण, जतन, स्टोअर, बचत
आशेने: आशा, अपेक्षा, आशावाद
वास्तववाद: 
रुग्णवाहिका: 
पाकीट: , पोर्टफोलिओ
तोंडवेडेवाकडे: घोकूनघोकून, विकटहास्य, विळविळणे
शास्त्रज्ञ: वैज्ञानिक, विद्वान, संशोधक, तपासनीस, जीवशास्त्रज्ञ
आतडे: आतडी
मनाचीशांती: 
वास्तववादी: प्रत्यक्ष, खरे, खरोखर, प्रत्यक्षात, खरोखर, प्रामाणिक, हटवादी, रिअल, स्पष्ट
असंबद्ध: परस्परविरोधी, अयोग्य, असंबद्ध, बिनमहत्त्वाचे
बीन: कोळशाचेगोळे, शेंगदाणा, अन्नधान्य
अनौपचारिक: औपचारिक, औपचारिकपणे
नात: नातू, पणती, भाची, वंशज
स्टीक: बारीकतुकडेकरणे
नायट्रोजन: 
गुणगुण: हळूआवाजातबोला
बोरासारखेबीअसलेलेलहानफळ: खुडणे, बे
विश्लेषण: विश्लेषण, वैश्लेषिक, विश्लेषण, विश्लेषण
contrasting: फरक, contrastive, परस्परविरोधी, विरोध, उलट, वेगळे, भेदभाव, फरक, भिन्न, विविध
फटाके: पण, बेटिंग, ज्योत
पॉप: स्नॅप, मोठाआवाज
चेकपडेउतरवणे: पट्टी, कपडे
पूरक: पुरवणी, सुसज्ज, याव्यतिरिक्त, पूरक
pegativeकेस: 
कर्करोग: 
तारणम्हणूनठेवणे: गहाण, सैनिक, प्रतिज्ञा
गळती: गळती, नुकसान, थेंब
घनता: गर्दीच्या, तीव्रता
चर्वण: 
अवघडपणा: गुंतागुंत
बडबड्या: बोलका, चपळ
माफ: माफ, मुक्ती, सुटका, आराम, गुणवत्ता
ध्रुवीय: अत्यंत, काठी
सवलत: सूट, विक्री, सवलत, समज
टॅक्सी: 
उतरंड: नेतृत्व, प्रणाली, पुनरावृत्तीच्या
गुरगुरणे: 
साधा: रेषेचा, साधा
अध्यक्षपद: राष्ट्रपतीपदाच्या
खरेदीदार: ग्राहक
गॅलन: 
डास: 
दु:खव्यक्तकरणे: दु:ख, दोष, दु:ख
विचलन: झुकणे, कुरूपता, ऑफसेट, काहीतरी
अशीकलाकृती: विविध
प्लग: कनेक्टर, व्हाउचर
गर्भधारणा: गर्भधारणा, विचार, वाहून, लोड
किराणा: 
कम्युनिस्ट: 
आश्चर्यचकित: आश्चर्य, आश्चर्यकारक, जबरदस्तआकर्षक, दिशाभूल, चुकीचाआहेअसेसिद्ध, तडाखादेऊनमूर्च्छितकरणे, घोटाळा, आश्चर्यचकित
prosecutiveकेस: 
हुकूमशहा: 
एकाग्रतेचाविषय: रोजगार, चिंता, काळजी, चिंता
उपग्रह: चौकशी
अंदाजे: अंदाज, अंदाजे, approximative, जवळजवळ, प्रत्यक्षव्यवहारात, सुमारे, अंदाजे
बेरोजगार: रोजगार
अंमलबजावणी: अंमलबजावणी, अंमलबजावणी, अंमलबजावणी, अंमलबजावणी, कार्यान्वित
बल्ब: कांदा, झडप
समर्थक: सहाय्यक, सहन, कंस
कमळ: कमळ
क्लोराईड: 
जीवाणू: बुरशीचे, जिवाणू
खिडकी: नमुना
जैविक: प्राणी, जीवशास्त्र
ढोंग: ढोंग, आवआणणे
बाइट: 
विमोचन: तयारकरणे
नृत्यनाट्य: कल्ला, मतपत्रिका
मूत्र: लघवीकरणे
लसूण: 
मध्यमवर्ग: 
कपडेधुऊनमिळण्याचेठिकाण: वॉशिंग
व्यक्तिचित्रण: वेगळे, व्यक्तिचित्रण
छोटी: 
नोटबुक: लॅपटॉप
अलौकिक: 
अल्बम: 
बेसबॉल: 
चाचेगिरी: 
आघात: 
कृदंत: सहभागी, आतप्रवेश
गॅरेज: 
निदान: निदान, निदान, मानसिक, ओळखले
पिळवणुक: ब्लॅकमेल, खुडणे, भागपाडणे, भागपाडणे
स्फुरद: 
स्ट्रक्चरल: रचना, कॉन्फिगरेशन, config, संस्थात्मक
सरस: 
प्रबंध: एम.ए.
कारागीर: मेकॅनिक, 
केळी: मेदयुक्त
बरगडी: गियर
निकेल: 
सध्या: आता, उपस्थित, चालू, आजकाल, रांग
बस: द्या
मुद्रणनियंत्रक: सेन्सॉरशिप, समीक्षक
क्षेपणास्त्र: रॉकेट
चटकदारमांसाचेखाद्यकबाब: गरमकुत्रा
इच्छितहालचालघडवूनआणण्यासाठी: येथपासूनचालवतात, हाताळू, कार्यरत, युक्ती, फसवणूककरणारा, हाताळू, ऑपरेशन, फसवणूक
टोमॅटो: 
अधिकमजबूत: संचित, तीव्र, पुष्टी, मजबूत, मजबूत
बहिर्वक्र: 
पोटॅशियम: 
बीजगणित: बीजगणितातील
दागिने: 
ऑप्टिकल: व्हिज्युअल
बेकारी: 
नि:शस्त्रकरणे: हात, शस्त्र, सशस्त्र
सोलो: स्वतंत्र, अभूतपूर्व, अलग, माती, फक्त
ब्राउझर: स्कॅनर
ऐतिहासिकताण: 
क्षमता: कार्यक्षमता, संभाव्य, क्षमता, भागाकार, क्षमता, लायकी, साक्षरता
स्पेक्ट्रम: 
सोडियम: 
उन्माद: प्रचंड
विश्वस्त: प्रशासक, निष्ठावंत
ओलिस: गहाण, प्रतिज्ञा
धावपटू: गणिती, मैदानीखेळकिंवाखेळाडूविषयक
सुरकुतणे: दोष, पाप
समावेश: अंतर्भूत, सामग्री, घडवणे, बांधकाम, सहभागी, व्यस्त, समावेश, समावेश, समावेश, असू, साध्य, समावेश
क्लिप: मुख्य, कंस, 
प्राधान्य: लक्ष, प्राधान्य, प्राधान्य
बलात्कार: बलात्कार, पेक्षाजास्त, आगळीक
मॉनिटर: ट्रॅक, देखरेख, पाहू, पाठपुरावा
मतदारसंघ: मतदार, मतदार, सौम्य
सांस्कृतिक: संस्कृती
लिंग: मोजणे, सेक्स, पुरुषाचेजननेंद्रिय, प्रजाती, लैंगिकता
प्लॅटिनम: 
दुहेरीसंख्या: 
विशेष: व्यावसायिक, वैशिष्ट्यपूर्ण, विशेषगुण, विशिष्ट, विशेष, कौशल्य, विशेषज्ञ, स्वतंत्र, विशेष, खास
फुफ्फुसाचा: 
सुपर: अभूतपूर्व, फार, विश्वासबसणारनाहीइतका, पर्यवेक्षक
ट्रॉली: चारचाकीघोडागाडी, कार्ट, गाडी
मशरूम: बुरशीचे, साचा
स्थानिकपातळीवर: स्थानिक
चिथावणीदेणे: जागृत, त्रासदेणे
पेट्रोल: पेट्रोल
भोपळा: फळांपासूनतयारकेलेलेपेय, सार
मूत्रपिंड: उंची, विस्तार
लूट: दरोडा, लुटण्याचं, बळी, पाणीघालणे, लुटणे, खेचणे
आर्सेनिक: 
गोगलगाय: हेलिक्स
infinitesimal: 
समाजवादी: नाते
फिल्टर: 
विस्तारणे: विस्तृत, रुंद, जोडा, वाढवण्याची, वाढविण्यासाठी, वाढवणे, सामान्यपणे, विस्तार
वादग्रस्त: वादंग, विरोध, संदिग्ध, गोंधळातटाकणारे, असमंजसपणा, परस्परविरोधी
ताब्यातठेवणे: लीज, कातडयाचा
फसविणे: 
न्यूमोनिया: 
situate: ठेवले
छेदनबिंदू: ओलांडणे, जंक्शन, क्रमवाचक
एकता: एकहोणे, मेळावा, ओढ, ऐक्य, सारखेपणा, युग
बिजागर: तपशीलवार, पळवाट, अक्ष
रेखांशाचा: उभ्या, दीर्घकाळापर्यंत, प्रजाती
लाभांश: वाटप
मंद: मंद
एकमोठा: स्कीच्यामदतीनेबर्फावरुनघसरतजाणे
वाकणे: वाकणे
निपुण: निर्देशांक, खरंसांगतो, तुकडा
अपंगत्व: अपंग, असमर्थता, दोष, अपूर्ण, अक्षम, दोष
यास्पर्धेत: विजेता, विजेता, यास्पर्धेत
छायाचित्रकार: फोटोग्राफिक
डिजिटल: आकृती, आकडा, सांख्यिकीय
कोल्ही: 
पापणी: 
सुप्तमन: 
भुवया: 
शिंक: 
खूपआनंदी: आनंदी, मजा, आनंद, मजेदार, पर्याय, गमतीशीर, मनोरंजक, विनोदी, हास्यास्पद, सुखकारक
निर्वासित: परदेशातून
प्रथिने: अंडीपांढरा
कच-याचाढीग: ब्लॉकला, स्टॅक, मनातूनकाढूनटाकणे, कचरा, कचरा, फेकणे
विकसित: उत्क्रांती, विकसित
उलटी: 
जनुक: मॉडिफाइड, अनुवांशिक
freshman: 
विलीन: फ्यूजन, एकहोणे, मैत्रीकरणे, एकत्र, संचित, एकीकरण, येणे, कनेक्ट
समाजशास्त्र: 
हालचाल: मोबाइल, पोर्टेबल, चळवळ, गती
प्रादेशिक: कंट्री, क्षेत्र, झोन, प्रभाग, गोल, क्षेत्र, गौण, प्रांतीय
गतीचढावर: 
सौम्य: पातळ, सौम्य
पूर्वलक्ष्यीप्रभावाने: गेल्या, आत्मपरीक्षण
उलटाक्रम: उलटा, उलट, परस्परांचा, व्यस्त, आपत्ती, संचालन
टीव्ही: दूरदर्शन, चित्रपट
घन: घन
मांडणी: वितरकांची, पेन्शन, मांडणी
उत्पादकता: कामगिरी, उत्पादन
गाजर: 
आण्विक: परमाणू, अंश, थर, आण्विक, आण्विक
गठ्ठा: कंपू, गट, क्लस्टर
लेखापाल: लेखापरीक्षक
भेद: भेदभाव, भेदभाव, वेगळे, फरक, ब्रेकखाली, फरक, फरक, चढ, फरक
उपलब्धता: प्रवेश, संपादन, करा, उपलब्ध, उपस्थिती, परिणामकारकता
आनंददायकगोष्टीचीमेजवानी: 
दिवाळखोरनसलेला: विरघळली
फॉस्फेट: 
धर्मशिक्षणाचेपहिलेपुस्तक: आमिष, मित्रांमध्ये, परिचय, पहिल्याने
स्वल्पविराम: झापड, पक्ष
पूर्वपक्ष: 
गतीउतारावर: 
दाता: 
मानसशास्त्रज्ञ: 
क्लोरीन: शेळी
कीबोर्ड: 
एलिट: वरिष्ठ
कंस: कंस
रग्बी: 
व्रण: घसा, जखमेच्या, शरीरालाझालेलीजखम, उकळणे
inflected: 
कुरतडूनथोडेथोडेखाणे: 
गर्भपात: गर्भपात
स्वेटर: जाकीट
उत्क्रांत: विकास, उत्क्रांती, विकास, प्रगती
नोटेशन: चिन्ह, चिन्ह, टीप
बाऊन्स: धंद्याचीभरभराट, उडी
विच्छेदन: वाटप, विभाग, विभागणी, पाणलोट
कॅशे: lurking
सुरमा: 
superessiveकेस: 
अर्बुद: अर्बुद, मोठ्याप्रमाणात
अल्फा: 
नाभी: पोट, काठी
रोगप्रतिकार: श्वास, प्रतिरोधक
संक्षिप्त: मर्यादा, बांधणे, प्रतिबंधित, सारांश, संक्षिप्त
आकर्षित: कॅप्चर, लुब्ध, शोधाशोध, आकर्षित
तडक: 
चित्रपट: चित्रपट, सिनेमा, रिबन, टेप, प्रकार
विश्व: विश्व
अपवित्र: प्रदूषण, संक्रमित
कळपकरूनराहणारा: 
अॅल्युमिनियम: अॅल्युमिनियम
आंदोलन: चढ-उतार, कंप
वर्णानुक्रमाने: वर्णमाला
पत्रिका: 
स्पर्शरेषा: 
डॉल्फिन: 
खाटीक: 
अनुनाद: कंप
सूचक: पवित्रा, निर्देशांक, निकष, निर्देशांकहाताचेबोट, गेज
डायऑक्साईड: 
नोकरशाही: नोकरशाही
विकृत: दिशाभूल, चढणे, खालावणे, खोटेपाडणे, तिरपा, कुरूपता
आकाशगंगा: ग्रह
क्लिनिकल: 
बहुमोल: रेडिओ
रेफ्रिजरेटर: फ्रीज
तालबद्ध: संगीत, पालन
पुरातत्व: पुरातत्वशास्त्र, पुरातत्वशास्त्र, जीवाश्म
तपशील: नियम, प्रमाणित, तपशील
प्रक्षिप्तमजकूर: 
हस्तपत्रक: , बुलेटिन, हँडआउट, पत्रक
अपुरेपणा: अपूर्ण
मानववंशशास्त्र: 
चवदार: मधुर
सकर्मक: निमित्त
अंगचोरूनबसणे: 
नक्कल: आवआणणे, 
योनी: बे, सेल
आयन: 
पर्यटन: पर्यटन, प्रवास, 
त्रिकोणामिती: 
बालकाचेअपहरण: अपहरण, संचालन, तरीपकडूनखायलाबघतील
आच्छादन: संवाद, परस्पर
शोधक: 
हुसकूनलावणे: च्याजागेवर, घालवूनदेणे, बाहेरकाढा, देशातूनहद्दपारकरणे, मनातूनकाढूनटाकणे
केशभूषा: 
लोकसाहित्य: गहू, लोक
केसासारखे: 
राष्ट्रवाद: राष्ट्रीयत्व
ढुंगण: हिप
शुद्ध: शुद्ध, शुद्ध
बफर: 
निराशा: निराशा, निराशा, गोंधळलेला, रद्द, पराभव, निराश, निराशा, निराशाजनक
कोबाल्ट: 
वजाबाकी: वजा
गतीupriver: 
समन्वय: साधतात, समन्वय, समन्वय
गुद्द्वार: 
रिडंडंसि: भरपूर, अवशिष्ट, जादा, घालविणे, बाद, सूट, अतिरिक्त
व्हिडिओ: 
बहिष्कार: कंट्री, ostracized, दुर्लक्ष
सामान्यज्ञानाचीचाचणीघेणे: प्रयत्न, परीक्षा, प्रश्नावलीच्या
गनिमी: 
मॅग्नेशियम: 
रडार: 
गुणात्मक: गुणवत्ता, वैशिष्ट्यपूर्ण
विश्वसनीयता: विश्वासार्हता
आयत: 
सामान्यविधानकरणे: सामान्यविधान, तयार, तयार, कवणे
आता: आता, पुन्हा
संचारबंदी: 
स्पष्टवस्वच्छमांडणी: तयार, बांधकाम, विधायक, शब्दरचना, निर्मिती, निर्मिती, स्वच्छपणे, स्थापना
अवतार: पुनर्जन्म
पेटणे: 
युरेनियम: 
सदस्यत्वरद्द: कर
एकात्मिक: अविभाज्य
असेमत: दृश्य, मत, शेरा
गॅमा: 
सर्व्हर: 
गतीdownriver: 
गुणांक: ग्रेड, घटक, मापांक
बिस्मथ: 
पोस्टकार्ड: पोस्ट, पदव्युत्तर
विषयांतर: माघार, निघून
morphological: अनुवांशिक, शब्दकसेबनतातत्याचेशास्त्र
मूल्यमापन: मुल्यांकन, मूल्यांकन, मूल्यमापन, चौकशी, चौकशी, चौकशी, चौकशी, समता
निळ्यासुतीकापड्याच्याविजारी: 
डेटाबेस: 
कॅल्क्युलेटर: संगणकीय
गुंतवणूकदार: 
नामकिरण: 
अजेंडा: कार्यक्रम, कार्यक्रम, अभ्यासक्रम
व्हिसा: 
पायाभूतसुविधा: मूलभूत, मूलभूत, मूलतः
डिटेक्टर: 
लग्नलावणे: लावणे, सुधारणा, संलग्न, कनेक्ट
एकरासायनिकमूलद्रव्य: 
सिलिकॉन: पी
उचकीयेणे: 
रंगीतखडू: फिकटगुलाबी
प्राणीसंग्रहालय: 
चिकित्सालय: 
योग: रक्कम
पुस्तकांचेदुकान: पुस्तकेठेवण्याचेकपाट, दुकान
किरकोळविक्रेता: विक्रेता, विक्रेता, दुकान, जवळच्या
शिरच्छेद: वेळेवर
होय: होय, कोण, प्रामाणिक
जॅझ: 
टंगस्टन: 
दहशतवादी: दहशतवादी, दहशतवादी, जहालमतवादी
संकल्पनात्मक: फॅन्सी, मत, संकल्पना, समज, नमुना, गर्भधारणा, मसुदा
कार्टेशियन: 
थेंबथेंबगळणे: चिखल
पोटगी: 
प्रोग्रामर: अनुप्रयोग
इनपुट: 
मेकअप: करावर, , युक्ती, भरपाई
लस: भाष्य, कव्हरेज, इंजेक्शन
स्वत:प्रमाण: 
हेरॉईन: 
फोल्डर: 
कॅथोड: 
फ्लू: ताप, प्रभाव
विचारसारणी: विचार
पार्किंग: 
स्नॅपशॉट: 
प्रतिसारालंकार: निराशा
मौल: 
कॉर्टेक्स: झाडाचीसाल, शेल, फळाचीसाल
समतोलपणा: समता
बिंदूवर: 
विमानतळ: 
कापूनकाढणे: व्यत्यय
तोतया: 
क्रोमियम: 
लिटर: लिटर
डॅशबोर्ड: पॅनल, डॅश
संप्रेरक: 
जाळीदार: हलवा
सर्ववस्तूंमध्येआत्माआहेअसाविश्वास: 
बहुभुजाकृती: कोन
पासपोर्टआहे: 
धातूंचागण: उतार, जोडलेले, जहाज
युरो: 
अल्गोरिदम: 
लेसर: 
drugstore: 
मिलीमीटर: मिलीमीटर
वाकवणे: वाकणे, वक्र, लवचिक, अनुकूल, केबल
धनाग्र: 
बारकावे: सावली
बिलगणे: आलिंगन
भागवेळ: 
संवेदनशीलता: 
मेनफ्रेम: 
निदर्शन: देखावा, प्रदर्शन, कामगिरी, प्रात्यक्षिक, सादरीकरण
हेलियम: 
द्विभाषिक: 
धातुसाधितनाम: 
प्लाजमा: 
क्रोमोसोम: 
पूर्णांक: अंक, आकडा
किलोमीटर: किलोमीटर
फॅक्स: 
हेशोधतबसणारनाही: अनुवांशिक, मॉडिफाइड
असेडागउमटवणे: 
ब्रोकोली: 
क्रमांतरण: स्वरूप, अरे, मांडणी, नामाचेस्पष्टीकरणकरणाराशब्दकिंवाशब्दसमूह
स्पॅम: 
वेक्टर: वाहक
मिळवण्याचेसाधनकिंवाउपाय: डिव्हाइस, दृष्टिकोन, तंत्र, पद्धती, प्राप्त
ठीक: पुनर्प्राप्त, योग्य, घट्ट, वैध, ठीकआहे
जीवनसत्व: 
कॅडमियम: 
ग्राफिकल: ग्राफिक, ग्राफिक्स
स्वतः: स्वतः
टायटॅनियम: 
आपल्यासंपत्तीचेकेलेलेप्रदर्शन: फुशारकी
हेलिकॉप्टर: 
टेलरियम: स्कॅन्डियम, lanthanum
अंतिममुदत: टर्म
संरेखितकरा: सुसंगत, अरे
analog: 
मीटरचाशंभरावाभाग: 
मॉलिब्डेनम: 
अल्कलीधातुतत्व: 
मल्टिमिडीया: 
उष्मांक: 
रोबो: 
गृहपाठ: सरदार
घातांकगणित: 
instal: डोंगरावर, स्थापित, संश्लेषण
glyph: मदत
पर्यावरणाच्या: पर्यावरणीय, पर्यावरणविषयक
वितंडवादानेविपर्यासकरणे: पाणीघालणे
साचा: साचा
euclidean: 
किलोग्राम: 
बाहेरखाणे: 
विभाजक: 
freeware: 
चोरूनऐकूशकते: 
धाटणी: 
एकरूपेरीरंगाचाचकचकीतधातू: 
वंशविद्वेष: वांशिक
बँडविड्थ: ब्रॉडबँड
चांगल्या: अव्वल, इष्टतम, अनुकूल, उपयुक्त, समायोजित, परिस्थितीशीजुळवूनघेत, सुसंगत, ऍडाप्टिव, योग्य, योग्य, शहाणा
कर्ण: जीवा, उतार
डेस्कटॉप: 
मुख्यालय: मुख्यालय, आसन
भलत्याचठिकाणीठेवणे: लज्जास्पद, गमावू
cerium: 
वस्तूचाकेस: 
कॅसेट: टेप
सुपरमार्केट: मॉल
प्रबळइच्छाशक्ती: संकल्प, होईल
मितीय: आकार, आकार, आकारमान, अवकाशीय
ऑफलाइन: 
एनक्रिप्शन: क्रिप्टोग्राफी, एनक्रिप्ट, कोडींग
सिंक्रोनाइझ: समक्रमित, संपूर्ण, समकालीन
परिसंवाद: 
शब्दार्थासंबंधीचा: अर्थ, यातूनअसाअर्थनिघत, विषय, ऑब्जेक्ट, साहित्य, पदार्थ, अर्थ, अर्थपूर्ण
डिस्को: 
निऑन: 
रिअलवेळ: 
Osmium: 
जीवनशैली: जीवन, आजीवन, जगण्याची, जिवंत, कारकीर्द
फायरवॉल: 
कोज्या: गणना, मोजणी
मानवनिर्मितवस्तू: 
मिळणारेएकमौल: 
वर्कस्टेशन: 
संक्षेपy: 
augmentative: 
वापरकर्तानाव: 
योग्यविंग: 
आर्गॉन: 
समाजात: संवाद, संवादसाधू
जागतिकीकरण: 
वृत्तछेदिका: 
तरंगलांबी: लाट
साध्याभाषेतीलसंदेश: कोड
रिसायकल: 
asymptote: 
डीकोड: पूर्णकरणे, निराकरण
पुन्हासुरूकरा: रीबूट, कार्यरत
हिपॅटायटीस: 
प्रोटॉन: 
डिस्केट: डिस्क
ग्रॅमचा: 
पिक्सेल: 
tantalum: 
विरघळणारापदार्थ: 
हत्येचा: 
gallium: 
पॉपवर: 
zirconium: 
अरेषात्मक: 
कीटकनाशक: 
polynomial: 
ऍल्युमिनियमबरोबरकाहीमिश्रधातूबनविण्यासाठीवापरण्यातयेणारेएकधातुरूपमूलद्रव्य: 
न्यूरॉन: 
विधेय: खंबीर
राऊटर: 
गुणनखंड: विद्याशाखा
विजेट: परिशिष्ट
न्यूट्रॉन: 
niobium: 
जर्मेनियम: 
धातूसारखा: नॉनधातू
prolativeकेस: 
जैवविविधतेचे: 
उद्योगप्रधान: औद्योगिकीकरण, उद्योग
जॉयस्टिक: 
प्रतिजैविक: 
actinium: 
अंतराळवीर: जागा
संकोचन: विस्तृत, वाढविण्यासाठी
extrapolation: 
सगळेच: उपरा
ऑक्टेट: 
खुल्यास्रोत: 
मॅरेथॉन: 
प्लगमध्ये: 
टोपोलॉजी: 
गिगाबाइट: 
ionize: 
आपणयुनिट: 
कॅम्पिंग: छावणी
मर्यादितक्रियापद: 
Krypton: 
म्हणीसंबंधीमूड: 
शिफ्टकी: 
चौरस: चौरस
विक्रेत्याच्या: विक्रेता, विक्रेता, लिपिक
rhenium: 
सेलफोन: सेलफोन, मोबाइलफोन, पोर्टेबल, लॅपटॉप, सेल
कडेकडेने: बाजूला
मॉडेलकेस: 
जंकमेल: 
रेल्वेचास्वयंचलितडब्बा: 
क्लिपकला: 
बुकमार्क: 
हाफ्नियम: 
घरपान: 
lativeकेस: 
nthमूळ: 
विरुद्धकार्यशीलफ्लोचार्ट: 
मध्यमआवाज: 
जुन्यावय: वृद्ध
rounding: गोलाकार
र्होडियमअणू: terbiumअणू, Thuliumअणू, थोरियमअणू, फ्लोरिनअणू, rubidiumअणू, thalliumअणू, बनलेलेअणू, पोलोनियमअणू, यानावाचाचांदीसारखाधातूअणू, rutheniumअणू
वाईटरागावणारा: उग्र
आडवाकेस: 
रुग्णकेस: 
पूर्वhodiernal: 
टक्कल: फक्त, कच्चा
ध्येयट्रिगर: 
praseodymium: 
दुबळा: 
तक्रार: तक्रार
तेकेस: येथेकेस, सहजगत्या, पासूनकेस
किरणे: प्रकाश, उत्सर्जन
इंडियम: 
अभिनेताभूमिका: 
अत्यानंदाचीअवस्था: उत्साह, आवेश, समाधान, संमती, आनंद, आनंद, आनंद, आनंद
सामनेलॉक: 
पांढराजागा: 
नाटकीय: नाट्यमय
आत्यंतिकदेशप्रेमी: 
वेबजागा: वेबसाइट, जागा
घरवनस्पती: 
नागरीअधिकार: 
protactinium: 
प्रक्षेपणाविषयक: 
बायनरीमूल्य: 
गोलरक्षक: 
किरकोळस्टोअर: 
स्थितीबार: 
मायक्रोफोन: सूक्ष्म
मानवीशरीर: 
शपथमध्ये: 
मेलवाहक: 
पर्यावरणकेस: 
ट्रोजनघोडा: 
स्क्रोलबार: 
तिहेरीबिंदू: 
वाचाफक्त: 
ना: विनोद, तोंडी
impermanence: अस्थिर, अस्थिरता
कवी: 
phonological: 
मोहिनीघालणे: 
चाचणीसंख्या: 
संवेदीचेतातंतूंचेटोक: 
क्रियापदलावणे: 
नॉनमानवी: 
प्रवाहचालू: 
कीजे: की, जे, ज्या, ज्या
खंडशेपूट: 
वरचीबाजूखाली: व्यस्त, उलट
साठीउदाहरणार्थ: 
ipपत्ता: 
मध्येभाषा: 
वैयक्तिकरित्या: वैयक्तिकरित्या, वैयक्तिक, वैयक्तिक, स्वतंत्रपणे, स्वतंत्र, भिन्न, भिन्न, वेगळ्या, अवकाशीय
प्रोशिक्षा: प्रोवाक्यांश
रोगपरिस्थितिविज्ञान: यांत्रिकी, प्रेरकशक्ती
कायदे: कायदे, विधान, व्यवस्था, आयोजित
स्ट्रीप: प्रकार, योजना, नियोजक, 
strikebreaker: 
Astatine: 
जादाकिंमत: 
आणखीतर: 
कोन: कोन, मर्मभेदक
बोलताबाहेर: 
उताराफॉर्म: 
ergativeकेस: 
उपनगर: लहानसेखेडे, , शेतात
सामान्यलिंग: 
महासंगणक: 
थेटऑब्जेक्ट: अप्रत्यक्षऑब्जेक्ट
स्वतःचीमोटारगाडीचालवणारागाडीचाचालक: ड्राइव्हर
सांख्यिकीय: संख्याशास्त्रीय, सांख्यिकीय
lutetium: 
तर्कशक्ती: शुद्धी, तर्कशास्त्र
निष्क्रीयआवाज: 
प्रयोजक: 
cesium: 
शोधइंजिन: 
साधनपट्टी: 
आपोआप: स्वयंचलित
कॅलिफोर्नियम: 
मेन्डेलेवियम: 
एजंटट्रिगर: 
रंगआंधळा: 
कॉमिकपट्टी: 
टर्मिनल: टर्मिनल
एकूणमॅट्रिक्स: 
samarium: 
लहानसर्किट: 
संकलित: गोळा
agentiveकेस: 
अपघात: क्रॅश, जखमीझालेलीव्यक्ती, अपघाती, घटना, हो
fractals: 
multalसंख्या: 
तेबंद: बंद, बंद, बंद, वगळण्याची
व्यापक: अफाट, व्यापक, व्यापक, रुंद, सामान्यपणे, जरुरीपेक्षाजास्त, मोठ्याप्रमाणावर, व्यापक, मोठा, कोन
adessiveकेस: 
सहकारी: सहकारी, सहकार्य, सहकारी, सहकारी
यूलरचीसंख्या: 
लेसरप्रिंटर: 
पलीकडेआकडा: 
ब्लॉग: ब्लॉगर
combinatorial: combinatorics
पायथागोरस: 
abessiveकेस: 
ठिकाणकेस: 
पोहणेपूल: पूल, नदीचेखोरे
सायबर: धोकादायक, हानीकारक
पोस्टकार्यालय: पोस्ट, मेल
मालवेअर: 
प्रतिबंध: काहीकरुनदेणे, अंकुश, मना, प्रतिबंधकरणे, मनाई, नाउमेद, मना
स्पायवेअर: 
रेकॉर्डिंग: रेकॉर्ड, समावेश, नोंदणी, नोंदणी, नोंद, लॉगइन
मुलाखत: मुलाखत
क्लिपबोर्ड: 
झेनॉन: 
स्प्रेडशीट: 
nthशक्ती: 
चित्रपटथिएटर: सिनेमा
इनबॉक्स: 
प्रतिटक्के: टक्के, टक्के
द्रवपदार्थाचाबारिकफवारा: फवारणी
वितरक: 
गतिशील: प्रेरकशक्ती, यांत्रिकी, डायनॅमिक
एकदुसरा: 
च्याबरोबरसमोरअसणे: चापाया
brownian: 
तारालिंग: 
आकाशगंगालिंग: 
पुठ्ठा: कार्ड, 
computability: 
एकआणखीएक: आणखीएक, प्रत्येकइतर, आणखी
पोलिसांनीअधिकारी: 
प्राथमिकऑब्जेक्ट: 
जिवंतलिंग: 
evitativeकेस: 
वाहनलिंग: 
डेटाखाण: 
ताब्यातकेस: 
americium: 
खनिजलिंग: 
डोमेननाव: 
काल्पनिकयुनिट: 
neptunium: 
शाब्दिकनाम: 
गणितज्ञ: 
मालकीचेकेस: मालकीचेकेस
मॉडेलिंग: 
अंतिमकण: 
फ्लॅशड्राइव्ह: 
फ्लॉपीडिस्क: 
firefighter: 
गंभीरबिंदू: 
संवेदनशीलआनंद: 
शब्दप्रोसेसर: 
पंतप्रधानमंत्री: 
आभासीस्मृती: 
क्रियाविशेषणकेस: 
ethidium: 
चड्डी: 
विदूषकसुमारे: 
समीकरणे: समीकरण
subessiveकेस: 
लॉगइनबाहेर: 
स्पॅमर: 
antessiveकेस: 
क्रॉसवॉकने: पदपथ, 
वापरकर्तासंवाद: 
भूतलेखक: 
संगणकव्हायरस: 
फॅसिलिटेटर: , तेनियंत्रकाच्या
पुनर्वसन: 
अधिकक्रियापद: 
पहिलाहात: थेट
मदरबोर्ड: कीनाही
रुग्णट्रिगर: 
रनटाइम: 
सामूहिकनाम: 
मुसलमानांचापवित्रधर्मग्रंथकुराण: वृत्तपत्र
व्यवसायव्यक्ती: व्यावसायीकव्यक्ती
सकर्मकक्रियापद: 
ढगसंगणकीय: 
आभासीमशीन: 
absolutiveकेस: 
आभासीप्रत्यक्षात: 
गेल्याperfective: 
वस्तुनिष्ठ,क्रियापद: 
crastinalताण: 
सर्वनामआवाज: 
गोषवारालिंग: 
विविधकार्यक्रम: 
exocentricकेस: 
दुसराभाषा: 
कलात्मकलिंग: 
स्वत:चीआत्मविश्वास: 
संशोधनलिंग: 
अप्रत्यक्षभाषण: 
परिसरलिंग: 
भौतिकशास्त्र: भौतिक, शारीरिक
विश्वलिंग: 
बंद: बंद, बंद, बंद, बंद, अर्धवट, राजीनामा, थांबवणे
उत्कृष्टदर्जाचाकेस: 
जुळणारे: सामना, मत, मतपत्रिका, खटला, योग्य, एकमताने, संबंधित, योग्य, उपयुक्त, एकाचवेळी, मेल, संबंधित, सुसंगत
संगणककार्यक्रम: 
प्रतिपिंड: 
पूर्णवेळ: 
propositiveमूड: 
associativeकेस: 
मृतलिंग: 
मजकूरसंपादक: 
ग्रहांच्यालिंग: 
ऑपरेटिंगप्रणाली: 
व्याकरणाचीकेस: 
विद्युतचालू: 
परस्परांचाआवाज: 
ताटे: 
कोरbenefactive: 
वेबयजमान: 
त्रिज्यीहे: 
applicativeआवाज: 
भाषेतीलध्वनिघटक: 
सलगखंड: 
नोटबुकसंगणक: 
गॅसस्वरुपात: 
antipassiveआवाज: 
लोकसंगीत: 
टेराबाइट: 
सामाजिकनेटवर्किंग: 
बोलणी: वाटाघाटी, चर्चा, संभाषण, गप्पा, संवाद, संवादसाधू, सल्ला, संवाद, संवाद
स्वतःलाकोणत्याहीबाबतीतबांधूननघेणारा: फ्लॅट, अस्पष्ट, संदिग्ध
शब्दाचालहानातलहानअर्थपूर्णअवयव: 
linker: दुवा, संयुक्तरुपाने
neodymium: 
किरणेआजारपण: 
उपस्थितकृदंत: 
necessitativeमूड: 
अनुभवजन्यखंड: 
जास्तकालावधी: 
निष्क्रीयकृदंत: 
व्याकरणाचीऑब्जेक्ट: 
continuativeपैलू: 
singulativeसंख्या: 
अर्थतीव्रता: 
उत्कृष्टदर्जाचापदवी: 
निळाजीन: 
वैकल्पिकक्वांटीफायर: 
supercriticalद्रवपदार्थ: 
epentheticशब्दाचालहानातलहानअर्थपूर्णअवयव: 
postpositionalकेस: 
negatoryक्वांटीफायर: 
संबंधितकण: 
nerium: 
सार्वत्रिकक्वांटीफायर: 
हवाशक्ती: 
allocutionकरार: 
संगणकप्रोग्रामिंग: 
खंबीरक्वांटीफायर: 
frequentativeपैलू: 
व्यक्तीदर्शकसर्वनाम: 
पर्यायीक्वांटीफायर: 
फिशिंग: 
scalar: 
counterfactualसशर्त: 
