; ModuleID = 'lank-vm.cpp'
target datalayout = "e-p:32:32:32-i1:8:8-i8:8:8-i16:16:16-i32:32:32-i64:64:64-f32:32:32-f64:64:64-v64:64:64-v128:64:128-a0:0:64-n32-S64"
target triple = "armv6-unknown-linux-gnueabihf"

!llvm.ident = !{!0}

!0 = metadata !{metadata !"Ubuntu clang version 3.4-1ubuntu3 (tags/RELEASE_34/final) (based on LLVM 3.4)"}
